<?xml version="1.0" encoding="UTF-8" standalone="no"?>
<!-- Created with Inkscape (http://www.inkscape.org/) -->

<svg
   xmlns:dc="http://purl.org/dc/elements/1.1/"
   xmlns:cc="http://creativecommons.org/ns#"
   xmlns:rdf="http://www.w3.org/1999/02/22-rdf-syntax-ns#"
   xmlns:svg="http://www.w3.org/2000/svg"
   xmlns="http://www.w3.org/2000/svg"
   xmlns:xlink="http://www.w3.org/1999/xlink"
   xmlns:sodipodi="http://sodipodi.sourceforge.net/DTD/sodipodi-0.dtd"
   xmlns:inkscape="http://www.inkscape.org/namespaces/inkscape"
   version="1.1"
   id="svg2"
   width="128mm"
   height="72mm"
   viewBox="0 0 483.77954 272.12598"
   sodipodi:docname="contours.svg"
   inkscape:version="0.92.1 r15371">
  <metadata
     id="metadata8">
    <rdf:RDF>
      <cc:Work
         rdf:about="">
        <dc:format>image/svg+xml</dc:format>
        <dc:type
           rdf:resource="http://purl.org/dc/dcmitype/StillImage" />
        <dc:title />
      </cc:Work>
    </rdf:RDF>
  </metadata>
  <defs
     id="defs6" />
  <sodipodi:namedview
     pagecolor="#23235f"
     bordercolor="#666666"
     borderopacity="1"
     objecttolerance="10"
     gridtolerance="10"
     guidetolerance="10"
     inkscape:pageopacity="0"
     inkscape:pageshadow="2"
     inkscape:window-width="1920"
     inkscape:window-height="1027"
     id="namedview4"
     showgrid="false"
     inkscape:zoom="1"
     inkscape:cx="299.05472"
     inkscape:cy="425.02216"
     inkscape:window-x="-8"
     inkscape:window-y="-8"
     inkscape:window-maximized="1"
     inkscape:current-layer="svg2"
     units="mm"
     inkscape:document-units="mm"
     borderlayer="true"
     inkscape:showpageshadow="false" />
  <image
     sodipodi:absref="C:\Users\boris.a.zolotov\Desktop\DMEair\kitten\orig.png"
     xlink:href="orig.png"
     width="483.77954"
     height="272.12598"
     preserveAspectRatio="none"
     id="image10"
     x="483.77954"
     y="-1.3290508e-005"
     style="stroke-width:2.64583349" />
  <path
     style="fill:#ffffff;fill-opacity:1;stroke:none;stroke-width:0.41574803;stroke-linecap:butt;stroke-linejoin:miter;stroke-miterlimit:4;stroke-dasharray:none;stroke-opacity:1"
     d="m 222.94737,154.3365 c 1.93642,-0.85896 4.34449,-4.58688 5.57895,-6.52631 1.3759,-2.16164 2.67465,-3.93598 4.34598,-5.87293 1.70622,-1.97738 2.38988,-3.18441 3.32928,-4.93835 1.0915,-2.03793 1.52673,-4.85036 1.43683,-6.66241 -0.11231,-2.26372 -0.14118,-4.98787 -1.00683,-7.78947 -1.05263,-3.40673 -1.78761,-11.32072 -2.21053,-14.10526 -0.40133,-2.64239 -2.8421,-6.94737 -7.15789,-9.473688 1.52723,-1.13222 1.06267,-2.40746 0.39306,-6.660153 -0.29299,-1.860793 -0.51264,-2.935597 -0.89635,-5.204979 -0.43926,-2.597894 -0.76884,-4.3931 -1.70567,-7.447945 -0.76304,-2.488162 -1.71212,-4.571084 -3.4687,-7.205955 -1.40923,-2.113843 -3.30589,-4.6586 -6.25326,-5.711232 -2.94737,-1.052632 -6.27274,-0.08696 -9.41362,1.630445 -2.43491,1.331389 -4.18268,2.564229 -7.0915,5.343271 -1.37211,1.310891 -3.02995,4.378982 -3.90316,6.586524 -1.18466,2.994915 -1.76233,4.788059 -3.32695,8.291023 -1.1539,2.58342 -2.05652,6.031911 -5.64964,6.852686 -3.32598,0.759753 -7.55091,-0.137071 -9.31954,-1.20897 -2.45626,-1.488644 -4.8304,-2.581208 -9.08074,-3.870479 -2.78152,-0.843728 -4.3915,-2.00967 -6.77334,-2.977292 -1.63477,-0.664127 -8.33642,-2.456266 -11.23927,-2.084104 -1.85894,0.238327 -4.66621,4.24359 -4.76367,6.773338 -0.10466,2.716638 0.22329,9.15517 1.04205,13.47225 0.81875,4.31707 3.27502,9.89949 4.6148,11.98359 1.33979,2.08411 2.38183,5.0614 2.45627,7.8154 0.0423,1.56427 3e-5,3.20059 1.04205,4.1682 0.95411,0.88598 4.39151,3.49832 5.21026,5.65686 0.74432,4.54037 3.21346,11.70269 7.92266,17.26829 4.5229,5.34542 10.54758,10.61144 18.05421,11.38814 7.7996,0.80701 20.17116,-1.63751 24.93482,-3.87048 4.76367,-2.23297 9.09019,-3.9303 12.89944,-5.62001 z"
     id="path4489"
     inkscape:connector-curvature="0"
     sodipodi:nodetypes="ssssssscssssssssssssssssssscssss" />
  <path
     style="fill:#269cd3;stroke:none;stroke-width:0.41574803;stroke-linecap:butt;stroke-linejoin:miter;stroke-miterlimit:4;stroke-dasharray:none;stroke-opacity:1;fill-opacity:1"
     d="m 215.78947,125.59963 c 1.04614,0.45819 1.74488,0.96839 2.44815,1.79167 0.66389,0.77717 1.0911,1.55205 1.36842,2.84794 0.32537,1.52048 0.25729,2.9617 -0.0797,3.93934 -0.48423,1.40474 -1.37563,3.48071 -3.36524,4.30675 -2.06823,0.85869 -5.00318,0.48272 -5.84529,0.21956 -0.84211,-0.26315 -2.24665,-1.29055 -2.73684,-3.8421 -0.52048,-2.70921 -0.28944,-4.43421 0.42105,-6.23684 0.54927,-1.39358 1.47661,-2.59889 2.94737,-3.2763 1.63534,-0.75322 3.40629,-0.37888 4.8421,0.24998 z"
     id="path4495"
     inkscape:connector-curvature="0"
     sodipodi:nodetypes="csssscssssc" />
  <path
     style="fill:#269cd3;stroke:none;stroke-width:0.41574803;stroke-linecap:butt;stroke-linejoin:miter;stroke-miterlimit:4;stroke-dasharray:none;stroke-opacity:1;fill-opacity:1"
     d="m 181.1743,137.64885 c 2.1823,-0.37363 3.40713,0.11868 4.73699,0.60135 1.44432,0.52422 2.19034,0.96162 2.97189,1.63654 0.78154,0.67492 1.39197,1.98832 1.88281,3.44564 0.32834,0.97485 0.51504,2.14844 0.5684,2.62862 0.10656,0.9591 0.071,1.77611 -0.35525,2.45103 -0.30587,0.48428 -1.31442,1.74059 -3.33933,1.66954 -2.48545,-0.0872 -5.50759,-0.61678 -7.70887,-2.45103 -1.91834,-1.59849 -2.06651,-4.36563 -1.5631,-6.96231 0.39682,-2.04684 2.18304,-2.91264 2.80646,-3.01938 z"
     id="path4497"
     inkscape:connector-curvature="0"
     sodipodi:nodetypes="ssssssssss" />
  <path
     style="fill:#263171;fill-opacity:1;stroke:none;stroke-width:0.37795275;stroke-linecap:butt;stroke-linejoin:miter;stroke-miterlimit:4;stroke-dasharray:none;stroke-opacity:1"
     d="m 181.08287,139.71318 c 2.97828,2.16339 5.08577,5.46232 7.2675,8.82101 -6.23815,0.13228 -8.08721,-4.01348 -7.2675,-8.82101 z"
     id="path4499"
     inkscape:connector-curvature="0"
     sodipodi:nodetypes="ccc" />
  <path
     style="fill:#263171;stroke:none;stroke-width:0.37795275;stroke-linecap:butt;stroke-linejoin:miter;stroke-miterlimit:4;stroke-dasharray:none;stroke-opacity:1;fill-opacity:1"
     d="m 211.46214,127.46682 c -0.71162,4.04301 0.50484,8.19394 3.72162,10.19722 2.3183,-3.84571 0.46388,-7.33951 -3.72162,-10.19722 z"
     id="path4501"
     inkscape:connector-curvature="0"
     sodipodi:nodetypes="ccc" />
  <path
     style="fill:#111b0c;stroke:none;stroke-width:0.41574803;stroke-linecap:butt;stroke-linejoin:miter;stroke-miterlimit:4;stroke-dasharray:none;stroke-opacity:1;fill-opacity:1"
     d="m 201.6743,145.92602 c -2.84704,-0.26051 -3.9263,-0.50242 -4.33568,-1.19092 -0.40937,-0.68849 -0.26606,-1.24115 0.33494,-1.47003 0.46402,-0.17671 0.9118,0.0186 1.6189,0.27912 0.14886,-0.81875 0.37332,-1.3817 0.70711,-1.67472 0.37784,-0.33169 0.87954,-0.4886 1.28396,-0.39078 0.70359,0.17019 0.9304,0.59546 1.00483,1.1537 0.077,0.57771 0.0744,1.45144 -0.61406,3.29363 z"
     id="path4503"
     inkscape:connector-curvature="0"
     sodipodi:nodetypes="csscsssc" />
  <path
     style="fill:#ffffff;stroke:none;stroke-width:0.45354331;stroke-linecap:butt;stroke-linejoin:miter;stroke-miterlimit:4;stroke-dasharray:none;stroke-opacity:1;fill-opacity:1"
     d="m 185.625,159.75098 c -7.43221,8.65234 -10.27276,15.76247 -11.375,21.125 -1.20657,5.87011 -3.5,12.125 -5,14.875 -1.5,2.75 -4.375,6.4375 -5.375,9.875 -0.57585,1.97949 -0.0561,5.48419 3.375,7.75 3.3125,2.1875 7.02134,3.25108 11,4 5.3125,1 9.96182,-0.60776 11.11872,-2.32322 1.63297,-2.42138 2.5162,-4.27395 5.13128,-5.17678 2.5623,-0.88461 6.86657,-0.98824 9.375,2.25 1.82868,2.36072 3.25477,4.16566 5.875,5.375 3.25,1.5 6.5,1.75 9.625,2.125 3.125,0.375 7.375,-0.5 9.625,-1.5 2.25,-1 4.16154,-3.03771 5.125,-4.8125 1.1875,-2.1875 1.82606,-4.9942 1.625,-7.4375 -0.40309,-4.89834 -3.04382,-10.15542 -3.875,-12.25 -1.5625,-3.9375 -2.75047,-9.29181 -3.5,-13 -1.1875,-5.875 -3.75,-13.25 -6.125,-17 -2.375,-3.75 -3.625,-6.25 -9.125,-9.125 -4.35993,-2.27906 -11.28248,-3.69179 -15.25,-3.125 -5.25,0.75 -8.4532,3.95489 -12.25,8.375 z"
     id="path4511"
     inkscape:connector-curvature="0"
     sodipodi:nodetypes="ssssssssssssssssssss" />
  <path
     style="fill:#da9291;fill-opacity:1;stroke:none;stroke-width:0.39685038;stroke-linecap:butt;stroke-linejoin:miter;stroke-miterlimit:4;stroke-dasharray:none;stroke-opacity:1"
     d="m 203.61391,152.37861 c 0.70988,0.12082 1.18708,-0.21849 1.58277,-0.54823 0.39569,-0.32974 1.03657,-0.83506 1.26127,-1.29012 0.2432,-0.49254 0.185,-1.08491 -0.0789,-1.51819 -0.29977,-0.49202 -1.1383,-0.90679 -1.73184,-1.03868 -0.59354,-0.1319 -1.25232,-0.0776 -1.90153,0.57154 -0.61891,0.61891 -0.74904,1.62853 -0.57421,2.46988 0.1631,0.78493 0.64671,1.21838 1.44246,1.3538 z"
     id="path4505"
     inkscape:connector-curvature="0"
     sodipodi:nodetypes="ssssssss" />
  <path
     style="fill:#da5253;fill-opacity:1;stroke:none;stroke-width:0.41574803;stroke-linecap:butt;stroke-linejoin:miter;stroke-miterlimit:4;stroke-dasharray:none;stroke-opacity:1"
     d="m 160.87025,116.54039 c 1.80102,-6.32661 4.50252,-9.39756 10.87532,-12.90721 -4.20235,-2.90932 -6.6784,-3.934419 -8.47397,-4.571793 -1.2464,-0.442433 -2.67843,-0.831234 -4.17926,-1.015953 -0.64819,-0.07978 -1.53871,0.522268 -1.75483,1.47775 -0.4387,1.939556 -0.34474,4.380596 -0.11419,6.615946 0.41235,3.99799 1.62621,6.88628 3.64693,10.40126 z"
     id="path4507"
     inkscape:connector-curvature="0"
     sodipodi:nodetypes="ccssssc" />
  <path
     style="fill:#da5253;fill-opacity:1;stroke:none;stroke-width:0.41574803;stroke-linecap:butt;stroke-linejoin:miter;stroke-miterlimit:4;stroke-dasharray:none;stroke-opacity:1"
     d="m 199.25001,93.379186 c 5.16142,-1.256399 12.0886,-0.781005 17.14815,1.86762 0.2377,-2.988192 0.017,-4.574026 -0.23764,-5.976385 -0.39289,-2.163693 -0.88477,-3.979493 -2.34302,-6.281996 -1.29035,-2.037404 -2.1719,-2.624108 -3.0561,-2.988192 -1.15453,-0.475395 -2.13713,-0.443997 -3.32776,0.135827 -1.16662,0.568125 -2.2573,1.799462 -3.00055,2.744669 -2.67269,3.398867 -3.55544,6.105516 -5.18308,10.498457 z"
     id="path4509"
     inkscape:connector-curvature="0"
     sodipodi:nodetypes="ccsssssc" />
  <path
     style="fill:#46afd2;fill-opacity:1;stroke:none;stroke-width:0.45354331;stroke-linecap:butt;stroke-linejoin:miter;stroke-miterlimit:4;stroke-dasharray:none;stroke-opacity:1"
     d="m 185.75622,164.55736 c 9.1261,-2.23181 10.07447,-3.45377 12.1092,-4.5962 1.59077,-0.89316 2.93154,-1.79103 4.24264,-2.74004 1.15103,-0.83314 2.49698,-1.34792 4.86136,-1.76776 1.94599,-0.34555 3.6242,-0.46013 4.24264,-0.44194 0.7513,0.0221 1.17571,-0.33504 1.41422,-0.70711 0.55242,-0.86178 0.35355,-1.96664 -0.17678,-3.53553 -0.47447,-1.40364 -0.60707,-2.0454 0.17678,-3.18198 0.88389,-1.28164 1.31719,-2.2834 3.27037,-2.47488 2.2539,-0.22097 3.49134,-0.48614 4.77297,-0.88388 1.0678,-0.33138 2.12823,-1.16219 4.15425,-0.0884 2.20971,1.17115 4.5078,3.57972 5.21491,5.3033 0.49873,1.21566 0.88388,2.38649 0.70711,3.71231 -0.13319,0.99894 -0.13259,2.62955 -1.06066,3.27037 -0.36367,0.25111 -0.97227,0.70711 -0.97227,1.67938 0,0.97227 0.41986,1.19324 1.14905,1.41421 1.06999,0.32424 2.91266,0.40215 4.41941,0.26517 1.94455,-0.17678 4.35157,0.47849 5.74525,1.06066 1.74567,0.7292 6.36396,4.06586 9.01561,6.71751 2.65165,2.65165 4.33103,7.07107 5.48007,8.22012 1.14905,1.14905 5.48008,3.53553 6.71752,5.39169 1.23744,1.85615 2.74004,3.71231 1.14905,6.54073 -1.59099,2.82843 -9.63433,9.54595 -13.34664,11.93243 -3.71231,2.38649 -9.28419,6.29109 -11.49049,6.8059 -3.12849,0.72999 -5.92202,-5.03812 -6.89429,-7.15944 -0.97227,-2.12132 -2.9168,-4.86136 -3.35875,-7.24785 -0.44194,-2.38648 -1.08645,-8.50006 -1.67938,-10.87176 -0.82164,-3.28656 -2.65165,-5.21491 -3.35876,-6.54074 -0.70711,-1.32582 -0.17678,-2.74004 0.17678,-3.71231 0.35355,-0.97227 0.0884,-1.85616 -0.26517,-2.91682 -0.35356,-1.06066 -3.0052,-1.5026 -3.62392,-2.12132 -0.61872,-0.61871 -3.09359,-2.65165 -5.03814,-2.29809 -1.94454,0.35355 -4.77297,1.59098 -7.68978,1.23743 -2.91682,-0.35356 -6.45235,-1.14904 -8.66206,-0.61871 -2.20971,0.53033 -5.56847,1.06066 -11.4021,0.35355 z"
     id="path4513"
     inkscape:connector-curvature="0"
     sodipodi:nodetypes="csssssssssssssssssssssssssssssssssc" />
  <path
     style="opacity:1;fill:#0050b4;fill-opacity:1;stroke:none;stroke-width:0.37795275;stroke-linecap:butt;stroke-linejoin:miter;stroke-miterlimit:4;stroke-dasharray:none;stroke-opacity:1"
     d="m 217.04553,156.86757 c 3.492,-0.49372 3.44714,-2.12132 2.47487,-3.97747 -0.97227,-1.85616 -1.01962,-2.3079 -0.61872,-3.0936 0.20484,-0.40145 0.97227,-0.79549 2.91682,0.0884 1.94454,0.88389 3.88908,0.35356 4.41941,1.06066 0.53033,0.70711 -0.0884,1.94455 -1.23743,2.12132 -1.14905,0.17678 -2.17218,0.86244 -2.82843,1.85616 -0.34096,0.5163 -1.06066,2.12132 0.0884,3.18198 1.14905,1.06066 1.12096,-0.3255 1.59099,-1.41422 0.59283,-1.37316 1.85615,-1.85615 3.09359,-1.85615 1.79994,0 2.89592,0.43356 2.57889,1.48115 -0.30428,1.00544 -0.78321,1.14386 -0.84406,1.73574 -0.0696,0.67723 1.03735,1.53953 -0.14387,2.43996 -1.13346,0.86402 -0.35355,3.00521 0.97227,3.00521 1.32583,0 3.7533,-0.66758 7.24785,0.7071 3.0775,1.21062 4.41941,1.85616 6.27557,3.44715 1.85615,1.59099 -0.88388,0.61872 -1.94454,0.0884 -1.06066,-0.53033 -1.85616,-0.26517 -1.14905,0.53033 0.7071,0.79549 3.35875,2.56326 4.59619,4.41942 1.23744,1.85615 0.8678,2.28293 -0.2598,2.31954 -1.50441,0.0488 -2.19657,-1.83869 -4.07123,-3.3802 -2.22043,-1.82583 -3.60247,-3.49893 -6.66037,-4.48728 -2.6113,-0.844 -3.50429,-0.46247 -4.29978,0.86335 -0.7955,1.32583 -0.38977,3.04358 1.14905,4.15426 1.96062,1.41513 4.19635,4.11283 5.54165,9.02005 1.22136,4.45511 2.76685,7.59695 2.14813,9.27633 -0.61872,1.67938 -0.97227,2.56327 -0.53033,3.62393 0.44194,1.06066 0.57767,2.17309 -0.24908,2.57934 -0.71395,0.35082 -1.3321,0.47856 -2.66773,-0.10447 -1.54763,-0.67557 -0.35357,-1.32583 -0.97228,-2.47487 -0.61872,-1.14905 -2.29809,-1.67938 -2.91681,-4.41942 -0.61872,-2.74004 0.35355,-6.54074 0.53033,-8.57367 0.17678,-2.03293 0,-3.88909 -1.14905,-5.56847 -1.14905,-1.67938 -3.7123,-2.65165 -5.03813,-5.92202 -0.74625,-1.84076 -3.27036,-4.24264 -3.35876,-5.92202 -0.0884,-1.67937 0.79549,-4.33103 -1.5026,-4.68458 -2.2981,-0.35356 -2.54568,-0.0206 -2.56327,0.97227 -0.0289,1.62871 -2.2981,-0.53035 -3.53554,-0.26518 -1.23743,0.26516 -2.15793,0.10539 -2.03293,-1.32583 0.0538,-0.61636 -0.1059,-2.31086 1.32583,-1.5026 1.88832,1.06602 2.28516,0.18928 3.62392,0 z"
     id="path4515"
     inkscape:connector-curvature="0"
     sodipodi:nodetypes="cssssssssssssssssssssssssssssssssssssssssc" />
  <text
     xml:space="preserve"
     style="font-style:normal;font-variant:normal;font-weight:normal;font-stretch:normal;font-size:40px;line-height:1.25;font-family:DotumChe;-inkscape-font-specification:DotumChe;letter-spacing:0px;word-spacing:0px;fill:#000000;fill-opacity:1;stroke:none"
     x="175.36247"
     y="-213.08531"
     id="text4497"><tspan
       sodipodi:role="line"
       x="175.36247"
       y="-213.08531"
       style="font-style:normal;font-variant:normal;font-weight:bold;font-stretch:normal;font-family:nord;-inkscape-font-specification:nord;fill:#ffffff;fill-opacity:1"
       id="tspan4499">НУ И</tspan></text>
  <text
     id="text4507"
     y="-168.15334"
     x="175.36247"
     style="font-style:normal;font-variant:normal;font-weight:normal;font-stretch:normal;font-size:40px;line-height:1.25;font-family:DotumChe;-inkscape-font-specification:DotumChe;letter-spacing:0px;word-spacing:0px;fill:#000000;fill-opacity:1;stroke:none"
     xml:space="preserve"><tspan
       id="tspan4505"
       style="font-style:normal;font-variant:normal;font-weight:bold;font-stretch:normal;font-family:nord;-inkscape-font-specification:nord;fill:#ffffff;fill-opacity:1"
       y="-168.15334"
       x="175.36247"
       sodipodi:role="line">ПОЖАЛУЙСТА!</tspan></text>
</svg>
