<?xml version="1.0" encoding="UTF-8" standalone="no"?>
<!-- Created with Inkscape (http://www.inkscape.org/) -->

<svg
   xmlns:dc="http://purl.org/dc/elements/1.1/"
   xmlns:cc="http://creativecommons.org/ns#"
   xmlns:rdf="http://www.w3.org/1999/02/22-rdf-syntax-ns#"
   xmlns:svg="http://www.w3.org/2000/svg"
   xmlns="http://www.w3.org/2000/svg"
   xmlns:sodipodi="http://sodipodi.sourceforge.net/DTD/sodipodi-0.dtd"
   xmlns:inkscape="http://www.inkscape.org/namespaces/inkscape"
   version="1.1"
   id="svg2"
   width="297mm"
   height="420mm"
   viewBox="0 0 1122.5197 1587.4016"
   sodipodi:docname="wrk.svg"
   inkscape:version="0.92.1 r15371">
  <metadata
     id="metadata8">
    <rdf:RDF>
      <cc:Work
         rdf:about="">
        <dc:format>image/svg+xml</dc:format>
        <dc:type
           rdf:resource="http://purl.org/dc/dcmitype/StillImage" />
        <dc:title />
      </cc:Work>
    </rdf:RDF>
  </metadata>
  <defs
     id="defs6" />
  <sodipodi:namedview
     pagecolor="#23235f"
     bordercolor="#666666"
     borderopacity="1"
     objecttolerance="10"
     gridtolerance="10"
     guidetolerance="10"
     inkscape:pageopacity="1"
     inkscape:pageshadow="2"
     inkscape:window-width="1920"
     inkscape:window-height="1027"
     id="namedview4"
     showgrid="false"
     inkscape:zoom="0.50000001"
     inkscape:cx="299.0057"
     inkscape:cy="881.57692"
     inkscape:window-x="-8"
     inkscape:window-y="-8"
     inkscape:window-maximized="1"
     inkscape:current-layer="svg2"
     units="mm"
     inkscape:document-units="mm"
     borderlayer="true"
     inkscape:showpageshadow="false" />
  <g
     id="g4546">
    <path
       sodipodi:nodetypes="ssssssscssssssssssssssssssscssss"
       inkscape:connector-curvature="0"
       id="path4489"
       d="m 664.15109,854.94483 c 10.46814,-4.64368 23.48599,-24.79643 30.15939,-35.28069 7.43801,-11.68544 14.45896,-21.27772 23.49405,-31.74846 9.22369,-10.68968 12.91951,-17.21462 17.99784,-26.69662 5.90056,-11.01673 8.25338,-26.22036 7.7674,-36.01644 -0.60715,-12.2374 -0.76322,-26.96421 -5.44285,-42.10946 -5.69045,-18.41637 -9.6637,-61.19886 -11.94997,-76.25166 -2.16956,-14.28462 -15.36418,-37.55713 -38.69502,-51.21411 8.25609,-6.12059 5.74472,-13.01477 2.12485,-36.00456 -1.58387,-10.05934 -2.77129,-15.86963 -4.8456,-28.1373 -2.3746,-14.04405 -4.15629,-23.74877 -9.22072,-40.26333 -4.12494,-13.45103 -9.25559,-24.71103 -18.75154,-38.95456 -7.61819,-11.42758 -17.87139,-25.18404 -33.80466,-30.87486 -15.93325,-5.69028 -33.90996,-0.47032 -50.88932,8.81435 -13.16294,7.19745 -22.61126,13.86188 -38.33613,28.88495 -7.41752,7.08663 -16.37969,23.67255 -21.10019,35.60667 -6.40419,16.19021 -9.52703,25.88358 -17.98524,44.82053 -6.2379,13.96566 -11.1174,32.60801 -30.54153,37.04518 -17.98001,4.10689 -40.81967,-0.74115 -50.38075,-6.53576 -13.27836,-8.04725 -26.11278,-13.95377 -49.0898,-20.92364 -15.0367,-4.56097 -23.74012,-10.86428 -36.61618,-16.09505 -8.83744,-3.59008 -45.06606,-13.27804 -60.75866,-11.2665 -10.04929,1.28824 -25.22518,22.94059 -25.75203,36.6165 -0.56579,14.68574 1.20708,49.49179 5.63323,72.82971 4.4261,23.33792 17.70452,53.51596 24.94727,64.78245 7.24281,11.2665 12.87599,27.36155 13.27842,42.24947 0.22867,8.45649 1.5e-4,17.30222 5.63324,22.53299 5.15785,4.78965 23.74017,18.91155 28.16627,30.58078 4.02375,24.54452 17.37173,63.26392 42.82932,93.35114 24.45046,28.89683 57.01944,57.36444 97.59971,61.56322 42.16406,4.36259 109.04379,-8.8522 134.79579,-20.92364 25.75205,-12.07142 49.14089,-21.2469 69.73341,-30.3813 z"
       style="fill:#ffffff;fill-opacity:1;stroke:none;stroke-width:0.41574797;stroke-linecap:butt;stroke-linejoin:miter;stroke-miterlimit:4;stroke-dasharray:none;stroke-opacity:1" />
    <path
       sodipodi:nodetypes="csssscssssc"
       inkscape:connector-curvature="0"
       id="path4495"
       d="m 625.45601,699.5953 c 5.65537,2.47699 9.4327,5.23509 13.23452,9.68579 3.58894,4.20149 5.89841,8.39054 7.39758,15.39553 1.75892,8.21971 1.3909,16.01073 -0.43086,21.2961 -2.6177,7.59371 -7.43655,18.81642 -18.19223,23.2817 -11.1807,4.64208 -27.04682,2.60999 -31.5992,1.18715 -4.55238,-1.42284 -12.14523,-6.97689 -14.79515,-20.77011 -2.81368,-14.64573 -1.56469,-23.97096 2.27616,-33.71567 2.96931,-7.53371 7.98245,-14.04947 15.93327,-17.71144 8.84052,-4.07228 18.41414,-2.04831 26.17602,1.35095 z"
       style="fill:#0aafd2;fill-opacity:1;stroke:none;stroke-width:0.41574797;stroke-linecap:butt;stroke-linejoin:miter;stroke-miterlimit:4;stroke-dasharray:none;stroke-opacity:1" />
    <path
       sodipodi:nodetypes="ssssssssss"
       inkscape:connector-curvature="0"
       id="path4497"
       d="m 438.32898,764.73291 c 11.79735,-2.02019 18.4187,0.64114 25.60781,3.25058 7.80789,2.83379 11.84082,5.19834 16.06582,8.8468 4.22495,3.64901 7.52489,10.74915 10.17834,18.6272 1.77498,5.26969 2.78426,11.61409 3.07272,14.21001 0.57606,5.18483 0.38382,9.60147 -1.92046,13.24993 -1.65351,2.61809 -7.10565,9.40956 -18.05217,9.02574 -13.43615,-0.47033 -29.77361,-3.33439 -41.67357,-13.25047 -10.37041,-8.64083 -11.1714,-23.60011 -8.45,-37.63767 2.14518,-11.06486 11.80135,-15.74531 15.17151,-16.32212 z"
       style="fill:#0aafd2;fill-opacity:1;stroke:none;stroke-width:0.41574797;stroke-linecap:butt;stroke-linejoin:miter;stroke-miterlimit:4;stroke-dasharray:none;stroke-opacity:1" />
    <path
       sodipodi:nodetypes="ccc"
       inkscape:connector-curvature="0"
       id="path4499"
       d="m 437.83472,775.89236 c 16.10035,11.69519 27.49329,29.52879 39.28756,47.68568 -33.72298,0.7152 -43.71885,-21.69669 -39.28756,-47.68568 z"
       style="fill:#14375f;fill-opacity:1;stroke:none;stroke-width:0.37795275;stroke-linecap:butt;stroke-linejoin:miter;stroke-miterlimit:4;stroke-dasharray:none;stroke-opacity:1" />
    <path
       sodipodi:nodetypes="ccc"
       inkscape:connector-curvature="0"
       id="path4501"
       d="m 602.0628,709.68923 c -3.84697,21.85617 2.72912,44.29616 20.1188,55.12531 12.53255,-20.78957 2.5077,-39.67679 -20.1188,-55.12531 z"
       style="fill:#14375f;fill-opacity:1;stroke:none;stroke-width:0.37795275;stroke-linecap:butt;stroke-linejoin:miter;stroke-miterlimit:4;stroke-dasharray:none;stroke-opacity:1" />
    <path
       sodipodi:nodetypes="csscsssc"
       inkscape:connector-curvature="0"
       id="path4503"
       d="m 549.15046,809.4783 c -15.39089,-1.40825 -21.22529,-2.71594 -23.43836,-6.43792 -2.21303,-3.72197 -1.4383,-6.70929 1.81065,-7.94671 2.50846,-0.95523 4.92912,0.10271 8.75166,1.50879 0.80472,-4.42637 2.01814,-7.46936 3.82258,-9.05329 2.04257,-1.79315 4.75473,-2.64135 6.941,-2.11264 3.80355,0.92009 5.02966,3.21922 5.43203,6.23681 0.41626,3.12301 0.4022,7.84616 -3.31956,17.80496 z"
       style="fill:#111b0c;fill-opacity:1;stroke:none;stroke-width:0.41574797;stroke-linecap:butt;stroke-linejoin:miter;stroke-miterlimit:4;stroke-dasharray:none;stroke-opacity:1" />
    <path
       sodipodi:nodetypes="ssssssssssssssssssss"
       inkscape:connector-curvature="0"
       id="path4511"
       d="m 462.38914,884.21522 c -40.17798,46.77369 -55.53378,85.2109 -61.49241,114.20014 -6.52263,31.73334 -18.92074,65.54684 -27.02963,80.41324 -8.10888,14.8662 -23.65093,34.8006 -29.05685,53.3835 -3.113,10.701 -0.30327,29.6471 18.245,41.8959 17.90713,11.8255 37.95685,17.5752 59.46519,21.6237 28.71897,5.4059 53.85285,-3.2857 60.10697,-12.5591 8.82771,-13.0899 13.60239,-23.1049 27.73932,-27.9853 13.85159,-4.7821 37.12016,-5.3428 50.68055,12.1633 9.8857,12.7618 17.59504,22.5189 31.75981,29.0568 17.56926,8.1089 35.13851,9.4604 52.03204,11.4876 16.89351,2.0273 39.8687,-2.7029 52.03203,-8.1089 12.16333,-5.4059 22.49698,-16.4216 27.70537,-26.016 6.41954,-11.8255 9.87155,-26.9983 8.78463,-40.2065 -2.17907,-26.4805 -16.45467,-54.8994 -20.94797,-66.2227 -8.44676,-21.2858 -14.86883,-50.2307 -18.92073,-70.27701 -6.41954,-31.75978 -20.27222,-71.62848 -33.1113,-91.9007 -12.83907,-20.27223 -19.59648,-33.78705 -49.32907,-49.32908 -23.56946,-12.32065 -60.99225,-19.95759 -82.44036,-16.89351 -28.38111,4.05444 -45.69738,21.37989 -66.22259,45.27462 z"
       style="fill:#ffffff;fill-opacity:1;stroke:none;stroke-width:0.45354331;stroke-linecap:butt;stroke-linejoin:miter;stroke-miterlimit:4;stroke-dasharray:none;stroke-opacity:1" />
    <path
       sodipodi:nodetypes="ssssssss"
       inkscape:connector-curvature="0"
       id="path4505"
       d="m 559.63585,844.36057 c 3.83756,0.65304 6.41726,-1.18119 8.55633,-2.96353 2.13907,-1.78287 5.60362,-4.51448 6.81833,-6.97418 1.31473,-2.66296 1.0001,-5.86488 -0.42652,-8.20727 -1.62053,-2.65972 -6.15357,-4.9021 -9.3622,-5.61514 -3.20863,-0.71304 -6.76995,-0.42167 -10.27953,3.08948 -3.34578,3.34574 -4.04926,8.80409 -3.10414,13.3521 0.88171,4.24312 3.49607,6.58658 7.79784,7.31854 z"
       style="fill:#af4628;fill-opacity:1;stroke:none;stroke-width:0.39685032;stroke-linecap:butt;stroke-linejoin:miter;stroke-miterlimit:4;stroke-dasharray:none;stroke-opacity:1" />
    <path
       sodipodi:nodetypes="ccssssc"
       inkscape:connector-curvature="0"
       id="path4507"
       d="m 328.5668,650.62193 c 9.73618,-34.20113 24.34028,-50.80272 58.79117,-69.77536 -22.71759,-15.72747 -36.10293,-21.26908 -45.80965,-24.71481 -6.73795,-2.39159 -14.4794,-4.49341 -22.59277,-5.49243 -3.50407,-0.43247 -8.31815,2.82352 -9.48648,7.98888 -2.37158,10.48479 -1.86364,23.6812 -0.6173,35.76506 2.22913,21.6129 8.79117,37.22683 19.71503,56.22866 z"
       style="fill:#cd5023;fill-opacity:1;stroke:none;stroke-width:0.41574797;stroke-linecap:butt;stroke-linejoin:miter;stroke-miterlimit:4;stroke-dasharray:none;stroke-opacity:1" />
    <path
       sodipodi:nodetypes="ccsssssc"
       inkscape:connector-curvature="0"
       id="path4509"
       d="m 536.04493,525.4142 c 27.90225,-6.792 65.35007,-4.22202 92.70162,10.09611 1.28499,-16.15399 0.0919,-24.7267 -1.28466,-32.30797 -2.12394,-11.69681 -4.78301,-21.51288 -12.6662,-33.96003 -6.97553,-11.01403 -11.74112,-14.18569 -16.52104,-16.15398 -6.24131,-2.56999 -11.55317,-2.40024 -17.98963,0.73466 -6.30666,3.07111 -12.2028,9.72742 -16.22075,14.8371 -14.44837,18.3742 -19.22044,33.00588 -28.01934,56.75411 z"
       style="fill:#cd5023;fill-opacity:1;stroke:none;stroke-width:0.41574797;stroke-linecap:butt;stroke-linejoin:miter;stroke-miterlimit:4;stroke-dasharray:none;stroke-opacity:1" />
    <path
       sodipodi:nodetypes="csssssssssssssssssssssssssssssssssc"
       inkscape:connector-curvature="0"
       id="path4513"
       d="m 463.0985,910.19826 c 49.33501,-12.06494 54.46184,-18.67099 65.46144,-24.84671 8.59958,-4.82858 15.84768,-9.68255 22.93539,-14.81278 6.22238,-4.50368 13.49849,-7.28665 26.28015,-9.55605 10.51988,-1.8683 19.59216,-2.48781 22.9354,-2.38943 4.06147,0.11893 6.3558,-1.81098 7.64516,-3.82253 2.98635,-4.65883 1.91127,-10.63129 -0.95566,-19.11264 -2.56495,-7.5883 -3.28177,-11.05728 0.95566,-17.20166 4.77825,-6.92824 7.12064,-12.34389 17.67938,-13.37913 12.18442,-1.19416 18.87393,-2.62782 25.80232,-4.7783 5.77245,-1.79098 11.50506,-6.28222 22.45757,-0.47571 11.94553,6.33141 24.36883,19.35213 28.19141,28.66924 2.6961,6.57198 4.7782,12.90124 3.82259,20.06895 -0.72001,5.39999 -0.71677,14.21489 -5.73385,17.679 -1.96597,1.35744 -5.25602,3.82254 -5.25602,9.07872 0,5.25618 2.26974,6.45035 6.21168,7.64506 5.78428,1.75314 15.74562,2.17426 23.891,1.43365 10.5121,-0.95576 23.52427,2.58674 31.0584,5.73353 9.43696,3.942 34.40309,21.97995 48.73772,36.31484 14.33462,14.33435 23.41323,38.2253 29.62485,44.43725 6.21167,6.21141 29.6249,19.11265 36.31441,29.14714 6.68951,10.0339 14.81245,20.0684 6.21168,35.3585 -8.60078,15.2902 -52.08248,51.6044 -72.15094,64.5057 -20.06847,12.9013 -50.18964,34.0092 -62.11674,36.7922 -16.91239,3.9463 -32.014,-27.2356 -37.27002,-38.7032 -5.25602,-11.4676 -15.768,-26.2804 -18.15715,-39.1816 -2.3891,-12.9007 -5.87327,-45.9504 -9.07861,-58.7716 -4.44172,-17.76712 -14.33461,-28.19137 -18.15721,-35.35909 -3.82258,-7.16717 -0.95566,-14.81224 0.95566,-20.06842 1.91128,-5.25564 0.47789,-10.03394 -1.43349,-15.768 -1.91131,-5.73406 -16.24588,-8.12295 -19.59063,-11.46759 -3.34476,-3.34465 -16.72372,-14.33489 -27.23581,-12.42336 -10.51204,1.911 -25.80233,8.60083 -41.57038,6.68929 -15.76812,-1.91099 -34.88093,-6.2114 -46.82645,-3.34464 -11.94553,2.86676 -30.10274,5.73406 -61.63891,1.91153 z"
       style="fill:#0aafd2;fill-opacity:1;stroke:none;stroke-width:0.45354331;stroke-linecap:butt;stroke-linejoin:miter;stroke-miterlimit:4;stroke-dasharray:none;stroke-opacity:1" />
    <path
       sodipodi:nodetypes="cssssssssssssssssssssssssssssssssssssssssc"
       inkscape:connector-curvature="0"
       id="path4515"
       d="m 632.24618,868.62777 c 18.87749,-2.6689 18.63499,-11.46759 13.37897,-21.50206 -5.25603,-10.03448 -5.51199,-12.47634 -3.34475,-16.72378 1.10734,-2.16993 5.25601,-4.30041 15.7681,0.47573 10.51205,4.77829 21.02408,1.91153 23.891,5.73406 2.86693,3.82253 -0.47788,10.51182 -6.68945,11.46759 -6.21167,0.95577 -11.74265,4.66207 -15.29028,10.03394 -1.8432,2.79108 -5.73385,11.46812 0.47788,17.20166 6.21168,5.73406 6.05983,-1.75964 8.60078,-7.64507 3.20479,-7.42341 10.03421,-10.03393 16.72371,-10.03393 9.73034,0 15.65514,2.34346 13.94129,8.00671 -1.64491,5.43512 -4.23397,6.18384 -4.56292,9.38307 -0.37626,3.66143 5.60783,8.32296 -0.77776,13.19046 -6.12739,4.67072 -1.91126,16.24589 5.25602,16.24589 7.16735,0 20.29006,-3.609 39.18134,3.82252 16.63674,6.54441 23.891,10.03449 33.92526,18.63531 10.03422,8.60083 -4.77818,3.34464 -10.51203,0.47572 -5.73385,-2.8673 -10.03426,-1.43365 -6.21168,2.86676 3.82253,4.30042 18.15716,13.85701 24.84666,23.89095 6.68951,10.03448 4.69126,12.34119 -1.40446,12.53959 -8.13272,0.26489 -11.87449,-9.93987 -22.00876,-18.27311 -12.00348,-9.87069 -19.47469,-18.91534 -36.00547,-24.25801 -14.1165,-4.56261 -18.94393,-2.50024 -23.24429,4.66694 -4.30042,7.16771 -2.10707,16.45347 6.21167,22.45783 10.59898,7.64992 22.68516,22.23349 29.95775,48.76146 6.60259,24.084 14.95739,41.0688 11.61263,50.1475 -3.34475,9.0782 -5.25601,13.8565 -2.86692,19.5905 2.38909,5.7342 3.12284,11.7476 -1.3465,13.9436 -3.85957,1.8968 -7.20124,2.5873 -14.42156,-0.5645 -8.36636,-3.6521 -1.91136,-7.1676 -5.25607,-13.3791 -3.34475,-6.2119 -12.4233,-9.0786 -15.76805,-23.8909 -3.34476,-14.8128 1.91126,-35.3591 2.86692,-46.34875 0.95566,-10.98974 0,-21.02421 -6.21168,-30.10293 -6.21168,-9.07817 -20.06842,-14.33435 -27.23576,-32.01389 -4.03417,-9.95068 -17.67932,-22.93518 -18.1572,-32.01389 -0.47788,-9.07871 4.30036,-23.41306 -8.12295,-25.3246 -12.42335,-1.911 -13.76176,-0.11352 -13.85684,5.25618 -0.15624,8.80463 -12.42336,-2.8673 -19.11287,-1.43365 -6.68945,1.43365 -11.66561,0.56978 -10.98987,-7.16718 0.29084,-3.33221 -0.57249,-12.49255 7.16734,-8.12294 10.20812,5.76271 12.35341,1.02334 19.59065,0 z"
       style="opacity:1;fill:#14375f;fill-opacity:1;stroke:none;stroke-width:0.37795275;stroke-linecap:butt;stroke-linejoin:miter;stroke-miterlimit:4;stroke-dasharray:none;stroke-opacity:1" />
  </g>
  <g
     id="g4671"
     transform="matrix(3.3204031,0,0,3.3204031,-436.19731,-3356.5203)"
     style="stroke-width:0.30116826">
    <g
       id="g4701"
       transform="translate(0,-39.4766)"
       style="stroke-width:0.30116826">
      <path
         inkscape:connector-curvature="0"
         id="path4531"
         style="font-style:normal;font-variant:normal;font-weight:bold;font-stretch:normal;font-size:medium;line-height:1.25;font-family:nord;-inkscape-font-specification:nord;letter-spacing:0px;word-spacing:0px;fill:#ffffff;fill-opacity:1;stroke:none;stroke-width:0.30116826"
         d="m 180.32247,1102.2303 c 1.64,0 3,-1.36 3,-3 0,-0.48 0,-1 0,-1.52 0,-1.28 0,-2.56 0,-3.84 0,-1 0,-2 0,-3 0,0 0,0 0,0 1.76,0 3.48,0 5.24,0 0.76,0 1.52,0 2.28,0 0,0.36 0,0.72 0,1.12 0,1.48 0,2.96 0,4.44 0,0.88 0,1.72 0,2.56 0,0.08 0,0.16 0,0.24 0,1.64 1.36,3 2.96,3 1.64,0 3,-1.36 3,-3 0,-0.48 0,-1 0,-1.52 0,-1.28 0,-2.56 0,-3.84 0,-1.68 0,-3.4 0,-5.12 0,-1.76 0,-3.52 0,-5.32 0,-1.48 0,-2.96 0,-4.44 0,-0.88 0,-1.72 0,-2.56 0,-0.08 0,-0.16 0,-0.24 0,-1.64 -1.36,-3 -3,-3 -1.6,0 -2.96,1.36 -2.96,3 0,0.48 0,1 0,1.52 0,1.28 0,2.56 0,3.84 0,1.12 0,2.24 0,3.36 -0.4,0 -0.8,0 -1.2,0 -1.76,0 -3.48,0 -5.24,0 -0.36,0 -0.72,0 -1.08,0 0,-0.52 0,-1 0,-1.48 0,-1.48 0,-2.96 0,-4.44 0,-0.88 0,-1.72 0,-2.56 0,-0.08 0,-0.16 0,-0.24 0,-1.64 -1.36,-3 -3,-3 -1.6,0 -2.96,1.36 -2.96,3 0,0.48 0,1 0,1.52 0,1.28 0,2.56 0,3.84 0,1.68 0,3.4 0,5.12 0,1.76 0,3.52 0,5.32 0,1.48 0,2.96 0,4.44 0,0.88 0,1.72 0,2.56 0,0.08 0,0.16 0,0.24 0,1.64 1.36,3 2.96,3 z" />
      <path
         inkscape:connector-curvature="0"
         id="path4533"
         style="font-style:normal;font-variant:normal;font-weight:bold;font-stretch:normal;font-size:medium;line-height:1.25;font-family:nord;-inkscape-font-specification:nord;letter-spacing:0px;word-spacing:0px;fill:#ffffff;fill-opacity:1;stroke:none;stroke-width:0.30116826"
         d="m 204.31747,1101.8303 c 0.68,0.4 1.52,0.52 2.28,0.28 0.24,-0.08 0.48,-0.2 0.72,-0.28 0.44,-0.28 0.8,-0.64 1.08,-1.08 0.2,-0.44 0.36,-0.84 0.56,-1.28 0.48,-1.12 0.96,-2.2 1.44,-3.32 0.68,-1.52 1.36,-3 2,-4.52 0.72,-1.64 1.44,-3.28 2.16,-4.92 0.68,-1.52 1.32,-3 2,-4.52 0.48,-1.08 0.96,-2.16 1.44,-3.28 0.16,-0.4 0.36,-0.8 0.52,-1.24 0.12,-0.24 0.24,-0.44 0.32,-0.68 0.16,-0.56 0.16,-1.08 0,-1.6 -0.2,-0.76 -0.72,-1.4 -1.36,-1.8 -0.72,-0.4 -1.56,-0.52 -2.32,-0.28 -0.24,0.08 -0.48,0.2 -0.72,0.28 -0.44,0.28 -0.8,0.64 -1.04,1.08 -0.2,0.44 -0.4,0.84 -0.6,1.28 -0.48,1.12 -0.96,2.2 -1.44,3.32 -0.68,1.52 -1.32,3 -2,4.52 -0.08,0.24 -0.2,0.44 -0.28,0.68 -0.16,-0.32 -0.28,-0.64 -0.44,-0.96 -0.72,-1.64 -1.4,-3.24 -2.12,-4.84 -0.48,-1.12 -1,-2.24 -1.48,-3.36 -0.08,-0.2 -0.16,-0.4 -0.24,-0.56 -0.16,-0.2 -0.32,-0.4 -0.48,-0.6 -0.36,-0.36 -0.8,-0.64 -1.32,-0.76 -0.76,-0.24 -1.6,-0.12 -2.28,0.28 -0.68,0.4 -1.16,1.04 -1.36,1.8 -0.04,0.24 -0.08,0.52 -0.12,0.8 0,0.52 0.12,1.04 0.4,1.48 0.28,0.64 0.56,1.24 0.84,1.88 0.6,1.44 1.24,2.88 1.88,4.32 0.72,1.6 1.4,3.2 2.12,4.8 0.44,1.04 0.92,2.08 1.36,3.08 -0.2,0.48 -0.4,0.92 -0.6,1.4 -0.48,1.08 -0.96,2.16 -1.44,3.28 -0.2,0.4 -0.4,0.8 -0.56,1.24 -0.12,0.24 -0.2,0.48 -0.32,0.72 -0.12,0.52 -0.12,1.04 0,1.56 0.24,0.76 0.72,1.4 1.4,1.8 z" />
      <path
         inkscape:connector-curvature="0"
         id="path4535"
         style="font-style:normal;font-variant:normal;font-weight:bold;font-stretch:normal;font-size:medium;line-height:1.25;font-family:nord;-inkscape-font-specification:nord;letter-spacing:0px;word-spacing:0px;fill:#ffffff;fill-opacity:1;stroke:none;stroke-width:0.30116826"
         d="m 246.15446,1088.5903 c 0.68,-0.96 1.36,-1.92 2.04,-2.88 0,0.36 0,0.72 0,1.08 0,1.76 0,3.56 0,5.32 0,1.48 0,2.92 0,4.4 0,0.84 0,1.64 0,2.44 0,0.08 0,0.12 0,0.2 0,1.64 1.36,3 2.96,3 1.64,0 3,-1.36 3,-3 0,-0.52 0,-1 0,-1.52 0,-1.28 0,-2.6 0,-3.88 0,-1.72 0,-3.4 0,-5.12 0,-1.76 0,-3.52 0,-5.32 0,-1.44 0,-2.92 0,-4.4 0,-0.8 0,-1.64 0,-2.44 0,-0.08 0,-0.12 0,-0.2 0,-1.32 -0.92,-2.52 -2.2,-2.88 -0.52,-0.12 -1.04,-0.12 -1.6,0 -0.24,0.12 -0.44,0.2 -0.68,0.32 -0.48,0.24 -0.84,0.6 -1.08,1.04 -0.24,0.36 -0.48,0.72 -0.76,1.08 -0.64,0.92 -1.28,1.8 -1.92,2.72 -0.88,1.28 -1.8,2.6 -2.68,3.88 -1.04,1.44 -2.04,2.92 -3.08,4.36 -0.68,0.96 -1.36,1.92 -2.04,2.88 0,-0.36 0,-0.72 0,-1.08 0,-1.76 0,-3.56 0,-5.32 0,-1.44 0,-2.92 0,-4.4 0,-0.8 0,-1.6 0,-2.4 0,-0.04 0,-0.08 0,-0.16 0,-1.64 -1.36,-3 -2.96,-3 -1.64,0 -3,1.36 -3,3 0,0.52 0,1.04 0,1.52 0,1.32 0,2.6 0,3.88 0,1.72 0,3.44 0,5.16 0,1.76 0,3.52 0,5.28 0,1.48 0,2.92 0,4.4 0,0.8 0,1.6 0,2.4 0,0.04 0,0.12 0,0.16 0,1.32 0.92,2.52 2.2,2.88 0.52,0.16 1.04,0.16 1.56,0 0.24,-0.08 0.48,-0.2 0.72,-0.28 0.48,-0.28 0.8,-0.64 1.08,-1.08 0.24,-0.36 0.48,-0.68 0.72,-1.04 0.68,-0.92 1.32,-1.84 1.96,-2.76 0.88,-1.28 1.8,-2.56 2.68,-3.84 1.04,-1.48 2.04,-2.92 3.08,-4.4 z" />
      <path
         inkscape:connector-curvature="0"
         id="path4508"
         style="font-style:normal;font-variant:normal;font-weight:bold;font-stretch:normal;font-size:medium;line-height:1.25;font-family:nord;-inkscape-font-specification:nord;letter-spacing:0px;word-spacing:0px;fill:#ffffff;fill-opacity:1;stroke:none;stroke-width:0.30116826"
         d="m 183.32247,1143.8723 c 0,-0.52 0,-1.04 0,-1.52 0,-1.32 0,-2.6 0,-3.88 0,-1.72 0,-3.4 0,-5.12 0,-1.76 0,-3.52 0,-5.32 0,-1.36 0,-2.76 0,-4.12 1.6,0 3.2,0 4.76,0 0.52,0 1.04,0 1.56,0 0,0.8 0,1.6 0,2.4 0,1.72 0,3.44 0,5.12 0,1.76 0,3.56 0,5.32 0,1.48 0,2.96 0,4.44 0,0.8 0,1.64 0,2.44 0,0.08 0,0.16 0,0.2 0,1.64 1.32,3 2.96,3 1.64,0 3,-1.36 3,-3 0,-0.48 0,-1 0,-1.52 0,-1.28 0,-2.56 0,-3.84 0,-1.72 0,-3.44 0,-5.12 0,-1.8 0,-3.56 0,-5.32 0,-1.48 0,-2.96 0,-4.44 0,-0.8 0,-1.64 0,-2.48 0,-0.04 0,-0.12 0,-0.2 0,-1.6 -1.36,-2.96 -3,-2.96 -0.84,0 -1.72,0 -2.56,0 -1.72,0 -3.44,0 -5.2,0 -1.32,0 -2.68,0 -4.04,0 -0.16,0 -0.28,0 -0.44,0 -1.64,0 -3,1.36 -3,2.96 0,0.52 0,1.04 0,1.56 0,1.28 0,2.56 0,3.84 0,1.72 0,3.4 0,5.12 0,1.76 0,3.56 0,5.32 0,1.48 0,2.96 0,4.44 0,0.8 0,1.64 0,2.48 0,0.04 0,0.12 0,0.2 0,1.6 1.36,2.96 3,2.96 1.64,0 2.96,-1.36 2.96,-2.96 z" />
      <path
         inkscape:connector-curvature="0"
         id="path4510"
         style="font-style:normal;font-variant:normal;font-weight:bold;font-stretch:normal;font-size:medium;line-height:1.25;font-family:nord;-inkscape-font-specification:nord;letter-spacing:0px;word-spacing:0px;fill:#ffffff;fill-opacity:1;stroke:none;stroke-width:0.30116826"
         d="m 212.46747,1146.0323 c 0.44,-0.36 0.88,-0.68 1.24,-1.04 0.4,-0.4 0.72,-0.84 1.04,-1.28 0.52,-0.68 0.84,-1.44 1.12,-2.24 0.16,-0.36 0.24,-0.72 0.32,-1.08 0.08,-0.6 0.2,-1.24 0.2,-1.88 0,-0.84 0,-1.68 0,-2.56 0,-1.72 0,-3.44 0,-5.2 0,-1.36 0,-2.76 0,-4.16 0,-0.32 0,-0.68 -0.04,-1.04 -0.08,-0.84 -0.2,-1.72 -0.52,-2.56 -0.2,-0.48 -0.4,-1 -0.68,-1.48 -0.28,-0.48 -0.6,-0.88 -0.96,-1.32 -0.52,-0.68 -1.16,-1.2 -1.84,-1.68 -0.68,-0.52 -1.48,-0.84 -2.28,-1.12 -0.28,-0.12 -0.6,-0.2 -0.88,-0.24 -0.56,-0.12 -1.12,-0.2 -1.68,-0.24 -0.32,0 -0.64,0 -0.96,0.04 -0.56,0.04 -1.12,0.12 -1.68,0.24 -0.32,0.08 -0.6,0.2 -0.88,0.32 -0.52,0.2 -1,0.4 -1.48,0.68 -0.48,0.28 -0.88,0.64 -1.32,0.96 -0.24,0.2 -0.44,0.4 -0.64,0.6 -0.36,0.4 -0.72,0.84 -1,1.28 -0.2,0.24 -0.36,0.48 -0.48,0.76 -0.4,0.76 -0.72,1.56 -0.88,2.4 -0.12,0.76 -0.2,1.48 -0.2,2.24 0,0.52 0,1.04 0,1.56 0,1.68 0,3.4 0,5.08 0,1.52 0,3 0,4.52 0,0.32 0,0.6 0,0.92 0,0.72 0.12,1.44 0.24,2.12 0.08,0.28 0.16,0.6 0.28,0.88 0.16,0.52 0.4,1 0.64,1.48 0.16,0.28 0.32,0.52 0.48,0.76 0.32,0.44 0.68,0.88 1.04,1.24 0.4,0.4 0.84,0.72 1.24,1.04 0.24,0.2 0.52,0.36 0.76,0.48 0.48,0.28 1,0.48 1.52,0.68 0.28,0.12 0.56,0.2 0.84,0.28 0.56,0.12 1.12,0.2 1.68,0.24 0.32,0 0.64,0 0.96,0 0.88,-0.08 1.76,-0.2 2.56,-0.52 0.8,-0.32 1.56,-0.64 2.24,-1.16 z m -5.72,-4.32 c -0.28,-0.08 -0.56,-0.16 -0.8,-0.24 -0.24,-0.12 -0.48,-0.28 -0.72,-0.4 -0.2,-0.2 -0.4,-0.4 -0.56,-0.6 -0.16,-0.24 -0.32,-0.48 -0.44,-0.72 -0.08,-0.24 -0.16,-0.52 -0.2,-0.8 -0.04,-0.28 -0.04,-0.6 -0.04,-0.88 0,-0.56 0,-1.08 0,-1.64 0,-1.72 0,-3.4 0,-5.12 0,-1.48 0,-2.96 0,-4.44 0,-0.4 0,-0.8 0.04,-1.2 0.04,-0.28 0.12,-0.56 0.2,-0.8 0.12,-0.24 0.28,-0.48 0.44,-0.72 0.16,-0.2 0.36,-0.4 0.56,-0.56 0.24,-0.16 0.48,-0.32 0.72,-0.44 0.24,-0.08 0.52,-0.16 0.8,-0.2 0.28,-0.04 0.56,-0.04 0.88,0 0.28,0.04 0.52,0.12 0.8,0.2 0.24,0.12 0.48,0.28 0.72,0.44 0.2,0.16 0.4,0.36 0.56,0.56 0.16,0.24 0.32,0.48 0.44,0.72 0.08,0.24 0.16,0.52 0.2,0.8 0,0.28 0.04,0.56 0.04,0.84 0,0.56 0,1.08 0,1.64 0,1.68 0,3.4 0,5.08 0,1.52 0,3 0,4.48 0,0.24 0,0.52 0,0.8 0,0.16 -0.04,0.28 -0.04,0.44 -0.04,0.28 -0.12,0.56 -0.2,0.8 -0.12,0.24 -0.28,0.48 -0.44,0.72 -0.16,0.2 -0.36,0.4 -0.56,0.6 -0.24,0.12 -0.48,0.28 -0.72,0.4 -0.28,0.08 -0.52,0.16 -0.8,0.24 -0.32,0 -0.6,0 -0.88,0 z" />
      <path
         inkscape:connector-curvature="0"
         id="path4512"
         style="font-style:normal;font-variant:normal;font-weight:bold;font-stretch:normal;font-size:medium;line-height:1.25;font-family:nord;-inkscape-font-specification:nord;letter-spacing:0px;word-spacing:0px;fill:#ffffff;fill-opacity:1;stroke:none;stroke-width:0.30116826"
         d="m 221.84872,1137.5923 c -0.72,1.32 -1.48,2.64 -2.2,3.92 -0.16,0.28 -0.32,0.6 -0.48,0.88 -0.36,0.68 -0.52,1.52 -0.28,2.28 0.2,0.76 0.68,1.4 1.36,1.8 1.4,0.8 3.28,0.36 4.08,-1.08 0.4,-0.72 0.8,-1.44 1.2,-2.12 0.84,-1.52 1.64,-3 2.48,-4.48 0.6,-1.08 1.2,-2.12 1.76,-3.2 0.64,0 1.28,0 1.92,0 0,0.4 0,0.8 0,1.24 0,1.44 0,2.92 0,4.4 0,0.84 0,1.64 0,2.48 0,0.04 0,0.12 0,0.16 0,1.64 1.36,3 3,3 1.64,0 3,-1.36 3,-3 0,-0.48 0,-1 0,-1.52 0,-1.28 0,-2.56 0,-3.84 0,-1 0,-1.96 0,-2.92 0.48,0 0.96,0 1.44,0 0.12,0 0.24,0 0.32,0 0.36,0.64 0.72,1.28 1.08,1.92 0.84,1.52 1.72,3.08 2.56,4.6 0.56,1.04 1.16,2.08 1.72,3.08 0.04,0.08 0.08,0.12 0.12,0.2 0.76,1.44 2.68,1.88 4.08,1.08 0.64,-0.4 1.16,-1.04 1.36,-1.8 0.24,-0.76 0.08,-1.6 -0.28,-2.28 -0.4,-0.72 -0.8,-1.44 -1.2,-2.16 -0.84,-1.48 -1.68,-2.96 -2.48,-4.48 -0.6,-1.08 -1.24,-2.16 -1.84,-3.24 0.12,-0.24 0.24,-0.44 0.36,-0.64 0.8,-1.48 1.6,-2.96 2.44,-4.48 0.72,-1.32 1.44,-2.64 2.16,-3.96 0.2,-0.32 0.36,-0.64 0.56,-0.96 0.36,-0.72 0.52,-1.52 0.28,-2.32 -0.2,-0.76 -0.72,-1.4 -1.36,-1.8 -1.4,-0.8 -3.32,-0.32 -4.08,1.08 -0.4,0.72 -0.8,1.44 -1.16,2.12 -0.84,1.52 -1.64,3 -2.48,4.48 -0.64,1.2 -1.28,2.4 -1.96,3.6 -0.52,0 -1.08,0 -1.64,0 0,-0.52 0,-1.04 0,-1.56 0,-1.48 0,-2.96 0,-4.44 0,-0.8 0,-1.64 0,-2.44 0,-0.08 0,-0.12 0,-0.2 0,-1.64 -1.36,-3 -3,-3 -1.64,0 -3,1.36 -3,3 0,0.52 0,1 0,1.52 0,1.28 0,2.6 0,3.88 0,1.08 0,2.16 0,3.24 -0.52,0 -1.04,0 -1.56,0 -0.08,0 -0.16,0 -0.24,0 -0.4,-0.76 -0.8,-1.52 -1.24,-2.28 -0.84,-1.56 -1.68,-3.08 -2.52,-4.64 -0.56,-1.04 -1.12,-2.04 -1.68,-3.08 -0.04,-0.04 -0.08,-0.12 -0.12,-0.2 -0.76,-1.4 -2.72,-1.88 -4.08,-1.08 -0.68,0.4 -1.16,1.04 -1.36,1.8 -0.24,0.8 -0.08,1.6 0.28,2.32 0.4,0.68 0.8,1.4 1.16,2.12 0.84,1.48 1.64,2.96 2.48,4.48 0.6,1.12 1.24,2.28 1.88,3.44 -0.12,0.2 -0.24,0.4 -0.36,0.64 -0.84,1.48 -1.68,2.96 -2.48,4.44 z" />
      <path
         inkscape:connector-curvature="0"
         id="path4514"
         style="font-style:normal;font-variant:normal;font-weight:bold;font-stretch:normal;font-size:medium;line-height:1.25;font-family:nord;-inkscape-font-specification:nord;letter-spacing:0px;word-spacing:0px;fill:#ffffff;fill-opacity:1;stroke:none;stroke-width:0.30116826"
         d="m 257.38935,1146.3923 c 0.68,-0.4 1.2,-1.04 1.4,-1.8 0.12,-0.48 0.2,-0.96 0.32,-1.44 0.32,-1.24 0.6,-2.44 0.92,-3.68 0.08,-0.36 0.16,-0.68 0.24,-1.04 0.24,0 0.48,0 0.68,0 1.72,0 3.4,0 5.08,0 0.08,0 0.16,0 0.24,0 0.24,0.96 0.48,1.96 0.68,2.92 0.24,0.96 0.48,1.88 0.68,2.8 0.04,0.16 0.08,0.28 0.12,0.44 0.16,0.76 0.72,1.4 1.36,1.8 0.72,0.4 1.56,0.52 2.32,0.28 0.72,-0.2 1.4,-0.68 1.76,-1.36 0.44,-0.72 0.52,-1.52 0.32,-2.28 -0.12,-0.48 -0.24,-1 -0.36,-1.48 -0.28,-1.2 -0.6,-2.44 -0.88,-3.68 -0.4,-1.64 -0.8,-3.28 -1.2,-4.92 -0.4,-1.72 -0.84,-3.44 -1.24,-5.2 -0.36,-1.48 -0.72,-2.96 -1.08,-4.48 -0.12,-0.4 -0.2,-0.84 -0.32,-1.24 0,0 0,0 0,0 0,-0.08 0,-0.12 -0.04,-0.2 0,-0.08 -0.04,-0.16 -0.04,-0.24 -0.56,-1.92 -2.16,-3.4 -4.16,-3.72 -0.24,-0.08 -0.48,-0.08 -0.76,-0.08 -0.12,0 -0.24,0 -0.36,0 -0.24,0 -0.48,0 -0.76,0.08 -1.92,0.32 -3.52,1.76 -4.08,3.6 -0.04,0.08 -0.04,0.12 -0.08,0.2 0,0.12 -0.04,0.24 -0.08,0.36 -0.24,1.04 -0.48,2.08 -0.76,3.12 -0.4,1.64 -0.76,3.32 -1.16,4.96 -0.44,1.72 -0.84,3.44 -1.28,5.2 -0.36,1.48 -0.72,2.96 -1.08,4.48 -0.2,0.92 -0.44,1.84 -0.68,2.76 0,0.16 -0.04,0.32 -0.08,0.48 -0.2,0.76 -0.12,1.56 0.28,2.28 0.4,0.68 1.04,1.16 1.8,1.36 0.76,0.24 1.6,0.12 2.28,-0.28 z m 4.32,-13.92 c 0.24,-1.04 0.48,-2.08 0.76,-3.12 0.24,-1.12 0.52,-2.24 0.8,-3.36 0.04,0.28 0.12,0.52 0.16,0.76 0.4,1.64 0.8,3.28 1.2,4.92 0.08,0.28 0.12,0.52 0.2,0.8 -0.12,0 -0.2,0 -0.28,0 -0.96,0 -1.88,0 -2.84,0 z" />
      <path
         inkscape:connector-curvature="0"
         id="path4516"
         style="font-style:normal;font-variant:normal;font-weight:bold;font-stretch:normal;font-size:medium;line-height:1.25;font-family:nord;-inkscape-font-specification:nord;letter-spacing:0px;word-spacing:0px;fill:#ffffff;fill-opacity:1;stroke:none;stroke-width:0.30116826"
         d="m 278.23435,1146.7923 c 0.76,0.2 1.6,0.12 2.32,-0.28 0.64,-0.4 1.16,-1.04 1.36,-1.8 0.12,-0.48 0.24,-0.96 0.36,-1.44 0.28,-1.24 0.56,-2.44 0.88,-3.68 0.4,-1.64 0.8,-3.28 1.2,-4.92 0.4,-1.76 0.8,-3.48 1.24,-5.2 0.28,-1.12 0.52,-2.24 0.8,-3.36 0.08,0.24 0.12,0.52 0.2,0.76 0.36,1.64 0.76,3.28 1.16,4.92 0.44,1.72 0.84,3.48 1.28,5.2 0.36,1.48 0.72,3 1.08,4.48 0.2,0.92 0.44,1.88 0.64,2.8 0.04,0.12 0.08,0.28 0.12,0.44 0.2,0.76 0.72,1.4 1.4,1.8 0.68,0.4 1.52,0.48 2.28,0.28 0.76,-0.2 1.4,-0.68 1.8,-1.36 0.4,-0.72 0.48,-1.52 0.28,-2.32 -0.12,-0.48 -0.24,-0.96 -0.36,-1.44 -0.28,-1.2 -0.56,-2.44 -0.88,-3.68 -0.4,-1.64 -0.8,-3.28 -1.2,-4.92 -0.4,-1.72 -0.8,-3.48 -1.24,-5.2 -0.36,-1.48 -0.72,-3 -1.08,-4.48 -0.08,-0.4 -0.2,-0.84 -0.28,-1.24 0,0 0,0 0,-0.04 -0.04,-0.04 -0.04,-0.08 -0.04,-0.16 -0.04,-0.08 -0.04,-0.16 -0.08,-0.24 -0.56,-1.92 -2.16,-3.4 -4.16,-3.76 -0.24,-0.04 -0.48,-0.04 -0.76,-0.08 -0.12,0 -0.2,0 -0.32,0 -0.28,0.04 -0.52,0.04 -0.76,0.08 -1.96,0.36 -3.56,1.8 -4.12,3.64 -0.04,0.08 -0.04,0.12 -0.08,0.2 0,0.12 -0.04,0.24 -0.04,0.36 -0.28,1.04 -0.52,2.08 -0.76,3.12 -0.4,1.64 -0.8,3.28 -1.2,4.92 -0.44,1.76 -0.84,3.48 -1.24,5.2 -0.4,1.52 -0.76,3 -1.12,4.48 -0.2,0.96 -0.44,1.88 -0.64,2.8 -0.04,0.16 -0.08,0.32 -0.12,0.44 -0.2,0.8 -0.12,1.6 0.28,2.32 0.4,0.68 1.04,1.16 1.8,1.36 z" />
      <path
         inkscape:connector-curvature="0"
         id="path4518"
         style="font-style:normal;font-variant:normal;font-weight:bold;font-stretch:normal;font-size:medium;line-height:1.25;font-family:nord;-inkscape-font-specification:nord;letter-spacing:0px;word-spacing:0px;fill:#ffffff;fill-opacity:1;stroke:none;stroke-width:0.30116826"
         d="m 304.23935,1146.5123 c 0.68,0.4 1.52,0.52 2.28,0.28 0.24,-0.08 0.48,-0.2 0.72,-0.28 0.44,-0.28 0.8,-0.64 1.08,-1.08 0.2,-0.44 0.36,-0.84 0.56,-1.28 0.48,-1.12 0.96,-2.2 1.44,-3.32 0.68,-1.52 1.36,-3 2,-4.52 0.72,-1.64 1.44,-3.28 2.16,-4.92 0.68,-1.52 1.32,-3 2,-4.52 0.48,-1.08 0.96,-2.16 1.44,-3.28 0.16,-0.4 0.36,-0.8 0.52,-1.24 0.12,-0.24 0.24,-0.44 0.32,-0.68 0.16,-0.56 0.16,-1.08 0,-1.6 -0.2,-0.76 -0.72,-1.4 -1.36,-1.8 -0.72,-0.4 -1.56,-0.52 -2.32,-0.28 -0.24,0.08 -0.48,0.2 -0.72,0.28 -0.44,0.28 -0.8,0.64 -1.04,1.08 -0.2,0.44 -0.4,0.84 -0.6,1.28 -0.48,1.12 -0.96,2.2 -1.44,3.32 -0.68,1.52 -1.32,3 -2,4.52 -0.08,0.24 -0.2,0.44 -0.28,0.68 -0.16,-0.32 -0.28,-0.64 -0.44,-0.96 -0.72,-1.64 -1.4,-3.24 -2.12,-4.84 -0.48,-1.12 -1,-2.24 -1.48,-3.36 -0.08,-0.2 -0.16,-0.4 -0.24,-0.56 -0.16,-0.2 -0.32,-0.4 -0.48,-0.6 -0.36,-0.36 -0.8,-0.64 -1.32,-0.76 -0.76,-0.24 -1.6,-0.12 -2.28,0.28 -0.68,0.4 -1.16,1.04 -1.36,1.8 -0.04,0.24 -0.08,0.52 -0.12,0.8 0,0.52 0.12,1.04 0.4,1.48 0.28,0.64 0.56,1.24 0.84,1.88 0.6,1.44 1.24,2.88 1.88,4.32 0.72,1.6 1.4,3.2 2.12,4.8 0.44,1.04 0.92,2.08 1.36,3.08 -0.2,0.48 -0.4,0.92 -0.6,1.4 -0.48,1.08 -0.96,2.16 -1.44,3.28 -0.2,0.4 -0.4,0.8 -0.56,1.24 -0.12,0.24 -0.2,0.48 -0.32,0.72 -0.12,0.52 -0.12,1.04 0,1.56 0.24,0.76 0.72,1.4 1.4,1.8 z" />
      <path
         inkscape:connector-curvature="0"
         id="path4520"
         style="font-style:normal;font-variant:normal;font-weight:bold;font-stretch:normal;font-size:medium;line-height:1.25;font-family:nord;-inkscape-font-specification:nord;letter-spacing:0px;word-spacing:0px;fill:#ffffff;fill-opacity:1;stroke:none;stroke-width:0.30116826"
         d="m 335.26872,1133.2723 2.04,-2.88 v 1.08 5.32 4.4 2.44 0.2 c 0,1.64 1.36,3 2.96,3 1.64,0 3,-1.36 3,-3 v -1.52 -3.88 -5.12 -5.32 -4.4 -2.44 -0.2 c 0,-1.32 -0.92,-2.52 -2.2,-2.88 -0.52,-0.12 -1.04,-0.12 -1.6,0 l -0.68,0.32 c -0.48,0.24 -0.84,0.6 -1.08,1.04 -0.24,0.36 -0.48,0.72 -0.76,1.08 l -1.92,2.72 -2.68,3.88 -3.08,4.36 -2.04,2.88 v -1.08 -5.32 -4.4 -2.4 -0.16 c 0,-1.64 -1.36,-3 -2.96,-3 -1.64,0 -3,1.36 -3,3 v 1.52 3.88 5.16 5.28 4.4 2.4 0.16 c 0,1.32 0.92,2.52 2.2,2.88 0.52,0.16 1.04,0.16 1.56,0 l 0.72,-0.28 c 0.48,-0.28 0.8,-0.64 1.08,-1.08 l 0.72,-1.04 c 0.68,-0.92 1.32,-1.84 1.96,-2.76 l 2.68,-3.84 z m -11.4,-21.08 c 0.2,0.32 0.44,0.6 0.76,0.8 0.96,0.4 1.92,0.76 2.92,1.04 1,0.24 2,0.4 3,0.52 1.8,0.16 3.64,0.04 5.4,-0.32 1.2,-0.2 2.32,-0.56 3.44,-1.04 0.16,-0.08 0.32,-0.16 0.52,-0.2 0.32,-0.2 0.6,-0.48 0.8,-0.8 0.28,-0.52 0.36,-1.12 0.2,-1.72 -0.16,-0.52 -0.52,-1 -1,-1.32 -0.2,-0.08 -0.36,-0.12 -0.52,-0.2 -0.4,-0.12 -0.8,-0.12 -1.2,0 -1.28,0.56 -2.64,0.92 -4.04,1.16 -1.28,0.12 -2.56,0.12 -3.8,0 -1.28,-0.2 -2.56,-0.56 -3.76,-1.08 -0.08,0 -0.16,-0.04 -0.24,-0.08 -0.4,-0.12 -0.8,-0.12 -1.16,0 -0.56,0.16 -1.04,0.52 -1.32,1 -0.32,0.52 -0.4,1.12 -0.24,1.72 0.08,0.16 0.16,0.32 0.24,0.52 z" />
      <path
         inkscape:connector-curvature="0"
         id="path4522"
         style="font-style:normal;font-variant:normal;font-weight:bold;font-stretch:normal;font-size:medium;line-height:1.25;font-family:nord;-inkscape-font-specification:nord;letter-spacing:0px;word-spacing:0px;fill:#ffffff;fill-opacity:1;stroke:none;stroke-width:0.30116826"
         d="m 354.75727,1146.8723 c 0.56,0 1.12,-0.08 1.68,-0.16 0.32,-0.08 0.6,-0.12 0.88,-0.24 0.52,-0.16 1.04,-0.36 1.52,-0.64 0.28,-0.12 0.52,-0.28 0.76,-0.44 0.44,-0.32 0.88,-0.64 1.24,-1 0.4,-0.4 0.72,-0.84 1.04,-1.24 0.52,-0.68 0.84,-1.48 1.16,-2.24 0.08,-0.32 0.16,-0.64 0.24,-0.96 0.12,-0.6 0.2,-1.2 0.2,-1.8 0,-1.64 -1.36,-3 -3,-3 -1.64,0 -2.96,1.36 -3,3 0,0.12 0,0.24 0,0.36 -0.04,0.24 -0.12,0.48 -0.2,0.72 -0.08,0.2 -0.2,0.4 -0.36,0.6 -0.16,0.2 -0.32,0.36 -0.48,0.52 -0.2,0.12 -0.4,0.24 -0.6,0.36 -0.24,0.08 -0.48,0.12 -0.72,0.16 -0.24,0.04 -0.48,0.04 -0.76,0 -0.24,-0.04 -0.44,-0.08 -0.68,-0.16 -0.2,-0.12 -0.44,-0.24 -0.64,-0.36 -0.16,-0.16 -0.32,-0.32 -0.48,-0.52 -0.12,-0.2 -0.24,-0.4 -0.36,-0.6 -0.08,-0.24 -0.12,-0.48 -0.2,-0.68 0,-0.32 0,-0.6 0,-0.88 0,-0.6 0,-1.16 0,-1.76 0,-1.68 0,-3.4 0,-5.12 0,-1.32 0,-2.6 0,-3.92 0,-0.2 0,-0.4 0,-0.6 0.04,-0.24 0.12,-0.48 0.2,-0.72 0.12,-0.2 0.24,-0.4 0.36,-0.6 0.16,-0.16 0.32,-0.36 0.52,-0.52 0.16,-0.12 0.4,-0.24 0.6,-0.36 0.24,-0.04 0.44,-0.12 0.68,-0.16 0.28,-0.04 0.52,-0.04 0.76,0 0.24,0.04 0.48,0.12 0.68,0.16 0.24,0.12 0.44,0.24 0.64,0.36 0.16,0.16 0.32,0.36 0.48,0.52 0.16,0.2 0.28,0.4 0.36,0.6 0.08,0.24 0.16,0.48 0.2,0.72 0,0.12 0,0.2 0,0.32 0.04,0.8 0.32,1.56 0.88,2.12 0.56,0.56 1.32,0.88 2.12,0.88 1.6,0 3,-1.36 3,-3 0,-0.56 -0.12,-1.12 -0.2,-1.68 -0.04,-0.32 -0.12,-0.6 -0.2,-0.92 -0.28,-0.76 -0.64,-1.56 -1.12,-2.24 -0.32,-0.44 -0.64,-0.88 -1.04,-1.24 -0.36,-0.4 -0.8,-0.72 -1.24,-1.04 -0.68,-0.52 -1.44,-0.84 -2.24,-1.12 -0.28,-0.12 -0.6,-0.2 -0.88,-0.24 -0.56,-0.12 -1.12,-0.2 -1.68,-0.2 -0.6,0 -1.16,0.08 -1.72,0.16 -0.28,0.04 -0.6,0.12 -0.88,0.2 -0.52,0.16 -1.04,0.4 -1.52,0.64 -0.28,0.12 -0.52,0.28 -0.8,0.44 -0.68,0.48 -1.32,1 -1.84,1.64 -0.36,0.44 -0.68,0.84 -0.96,1.32 -0.24,0.48 -0.48,1 -0.64,1.48 -0.12,0.28 -0.2,0.6 -0.28,0.88 -0.12,0.56 -0.16,1.12 -0.2,1.68 -0.04,0.32 0,0.6 0,0.92 0,1.48 0,2.92 0,4.4 0,1.64 0,3.32 0,4.96 0,1.44 -0.08,2.88 0.44,4.28 0.28,0.76 0.64,1.56 1.12,2.24 0.32,0.4 0.64,0.84 1.04,1.24 0.4,0.36 0.84,0.68 1.24,1 0.24,0.16 0.52,0.32 0.76,0.44 0.52,0.28 1,0.48 1.52,0.64 0.28,0.12 0.6,0.16 0.88,0.24 0.56,0.08 1.16,0.16 1.72,0.16 z" />
      <path
         inkscape:connector-curvature="0"
         id="path4524"
         style="font-style:normal;font-variant:normal;font-weight:bold;font-stretch:normal;font-size:medium;line-height:1.25;font-family:nord;-inkscape-font-specification:nord;letter-spacing:0px;word-spacing:0px;fill:#ffffff;fill-opacity:1;stroke:none;stroke-width:0.30116826"
         d="m 372.84941,1131.7523 c 0,1.8 0,3.56 0,5.32 0,1.44 0,2.88 0,4.36 0,0.76 0,1.52 0,2.28 0,0.08 0,0.12 0,0.16 0,1.6 1.36,2.96 3,2.96 1.64,0 3,-1.36 3,-2.96 0,-0.52 0,-1.04 0,-1.56 0,-1.28 0,-2.6 0,-3.88 0,-1.72 0,-3.44 0,-5.16 0,-1.76 0,-3.52 0,-5.28 0,-1.36 0,-2.72 0,-4.08 0.72,0 1.48,0 2.2,0 0.6,0 1.16,0 1.76,0 1.6,0 2.96,-1.36 2.96,-3 0,-1.6 -1.36,-2.96 -2.96,-2.96 -0.8,0 -1.56,0 -2.36,0 -1.64,0 -3.32,0 -5,0 -1.6,0 -3.2,0 -4.8,0 -0.6,0 -1.16,0 -1.76,0 -1.6,0 -2.96,1.36 -2.96,2.96 0,1.64 1.36,3 2.96,3 0.8,0 1.56,0 2.32,0 0.56,0 1.12,0 1.64,0 0,0.92 0,1.8 0,2.72 0,1.72 0,3.44 0,5.12 z" />
      <path
         inkscape:connector-curvature="0"
         id="path4526"
         style="font-style:normal;font-variant:normal;font-weight:bold;font-stretch:normal;font-size:medium;line-height:1.25;font-family:nord;-inkscape-font-specification:nord;letter-spacing:0px;word-spacing:0px;fill:#ffffff;fill-opacity:1;stroke:none;stroke-width:0.30116826"
         d="m 391.17244,1146.3923 c 0.68,-0.4 1.2,-1.04 1.4,-1.8 0.12,-0.48 0.2,-0.96 0.32,-1.44 0.32,-1.24 0.6,-2.44 0.92,-3.68 0.08,-0.36 0.16,-0.68 0.24,-1.04 0.24,0 0.48,0 0.68,0 1.72,0 3.4,0 5.08,0 0.08,0 0.16,0 0.24,0 0.24,0.96 0.48,1.96 0.68,2.92 0.24,0.96 0.48,1.88 0.68,2.8 0.04,0.16 0.08,0.28 0.12,0.44 0.16,0.76 0.72,1.4 1.36,1.8 0.72,0.4 1.56,0.52 2.32,0.28 0.72,-0.2 1.4,-0.68 1.76,-1.36 0.44,-0.72 0.52,-1.52 0.32,-2.28 -0.12,-0.48 -0.24,-1 -0.36,-1.48 -0.28,-1.2 -0.6,-2.44 -0.88,-3.68 -0.4,-1.64 -0.8,-3.28 -1.2,-4.92 -0.4,-1.72 -0.84,-3.44 -1.24,-5.2 -0.36,-1.48 -0.72,-2.96 -1.08,-4.48 -0.12,-0.4 -0.2,-0.84 -0.32,-1.24 0,0 0,0 0,0 0,-0.08 0,-0.12 -0.04,-0.2 0,-0.08 -0.04,-0.16 -0.04,-0.24 -0.56,-1.92 -2.16,-3.4 -4.16,-3.72 -0.24,-0.08 -0.48,-0.08 -0.76,-0.08 -0.12,0 -0.24,0 -0.36,0 -0.24,0 -0.48,0 -0.76,0.08 -1.92,0.32 -3.52,1.76 -4.08,3.6 -0.04,0.08 -0.04,0.12 -0.08,0.2 0,0.12 -0.04,0.24 -0.08,0.36 -0.24,1.04 -0.48,2.08 -0.76,3.12 -0.4,1.64 -0.76,3.32 -1.16,4.96 -0.44,1.72 -0.84,3.44 -1.28,5.2 -0.36,1.48 -0.72,2.96 -1.08,4.48 -0.2,0.92 -0.44,1.84 -0.68,2.76 0,0.16 -0.04,0.32 -0.08,0.48 -0.2,0.76 -0.12,1.56 0.28,2.28 0.4,0.68 1.04,1.16 1.8,1.36 0.76,0.24 1.6,0.12 2.28,-0.28 z m 4.32,-13.92 c 0.24,-1.04 0.48,-2.08 0.76,-3.12 0.24,-1.12 0.52,-2.24 0.8,-3.36 0.04,0.28 0.12,0.52 0.16,0.76 0.4,1.64 0.8,3.28 1.2,4.92 0.08,0.28 0.12,0.52 0.2,0.8 -0.12,0 -0.2,0 -0.28,0 -0.96,0 -1.88,0 -2.84,0 z" />
      <path
         inkscape:connector-curvature="0"
         id="path4528"
         style="font-style:normal;font-variant:normal;font-weight:bold;font-stretch:normal;font-size:medium;line-height:1.25;font-family:nord;-inkscape-font-specification:nord;letter-spacing:0px;word-spacing:0px;fill:#ffffff;fill-opacity:1;stroke:none;stroke-width:0.3011682"
         d="m 419.29124,1112.2551 c -1.11946,0 -2.14562,0.4198 -2.93857,1.2128 -0.74631,0.7463 -1.21274,1.8191 -1.21274,2.9385 0,0.6531 0,1.3061 0,1.9591 0,0.1866 0,0.3731 0.0466,0.5597 0,0.047 0,0.093 0,0.1866 0.0466,0.9795 0.0933,1.959 0.18658,2.9386 0.0933,2.0057 0.23321,4.058 0.3265,6.0637 0.0933,1.6792 0.18658,3.3583 0.32651,4.9909 0,0.2798 0,0.5597 0.0466,0.8396 0,0.2798 0.0466,0.5597 0.0933,0.8396 0.13993,0.5597 0.4198,1.0261 0.83959,1.4459 0.60637,0.6064 1.44597,0.9329 2.28556,0.9329 0.83959,0 1.67918,-0.3265 2.28555,-0.9329 0.18658,-0.2332 0.32651,-0.4664 0.51308,-0.653 0.27987,-0.5131 0.4198,-1.0728 0.4198,-1.6325 0.0933,-1.0262 0.13993,-2.0057 0.18658,-2.9852 0.13993,-2.0057 0.23322,-4.0581 0.37315,-6.0638 0.0933,-1.6791 0.18657,-3.3583 0.27986,-4.9909 0,-0.1399 0,-0.2798 0.0466,-0.4198 0,-0.1399 0,-0.2798 0,-0.3731 0,-0.093 0,-0.1399 0,-0.1866 0.0466,-0.1866 0.0466,-0.3731 0.0466,-0.5597 0,-0.653 0,-1.306 0,-1.9591 0,-1.1194 -0.46644,-2.1922 -1.21274,-2.9385 -0.79295,-0.793 -1.86576,-1.2128 -2.93857,-1.2128 z m 0.13993,27.7065 c -1.9124,0 -3.54494,1.5859 -3.54494,3.545 0,1.9124 1.63254,3.4983 3.54494,3.4983 1.9124,0 3.4983,-1.5859 3.4983,-3.4983 0,-1.9591 -1.5859,-3.545 -3.4983,-3.545 z" />
    </g>
  </g>
  <g
     id="g4652"
     transform="matrix(3.4201551,0,0,3.4201551,-369.37675,-2788.6223)"
     style="stroke-width:0.29238439">
    <path
       inkscape:connector-curvature="0"
       id="path4626"
       style="font-style:normal;font-variant:normal;font-weight:bold;font-stretch:normal;font-size:medium;line-height:1.25;font-family:nord;-inkscape-font-specification:nord;letter-spacing:0px;word-spacing:0px;fill:#ffffff;fill-opacity:1;stroke:none;stroke-width:0.29238439"
       d="m 180.32247,1211.8319 c 1.64,0 3,-1.36 3,-3 0,-0.48 0,-1 0,-1.52 0,-1.28 0,-2.56 0,-3.84 0,-1 0,-2 0,-3 0,0 0,0 0,0 1.76,0 3.48,0 5.24,0 0.76,0 1.52,0 2.28,0 0,0.36 0,0.72 0,1.12 0,1.48 0,2.96 0,4.44 0,0.88 0,1.72 0,2.56 0,0.08 0,0.16 0,0.24 0,1.64 1.36,3 2.96,3 1.64,0 3,-1.36 3,-3 0,-0.48 0,-1 0,-1.52 0,-1.28 0,-2.56 0,-3.84 0,-1.68 0,-3.4 0,-5.12 0,-1.76 0,-3.52 0,-5.32 0,-1.48 0,-2.96 0,-4.44 0,-0.88 0,-1.72 0,-2.56 0,-0.08 0,-0.16 0,-0.24 0,-1.64 -1.36,-3 -3,-3 -1.6,0 -2.96,1.36 -2.96,3 0,0.48 0,1 0,1.52 0,1.28 0,2.56 0,3.84 0,1.12 0,2.24 0,3.36 -0.4,0 -0.8,0 -1.2,0 -1.76,0 -3.48,0 -5.24,0 -0.36,0 -0.72,0 -1.08,0 0,-0.52 0,-1 0,-1.48 0,-1.48 0,-2.96 0,-4.44 0,-0.88 0,-1.72 0,-2.56 0,-0.08 0,-0.16 0,-0.24 0,-1.64 -1.36,-3 -3,-3 -1.6,0 -2.96,1.36 -2.96,3 0,0.48 0,1 0,1.52 0,1.28 0,2.56 0,3.84 0,1.68 0,3.4 0,5.12 0,1.76 0,3.52 0,5.32 0,1.48 0,2.96 0,4.44 0,0.88 0,1.72 0,2.56 0,0.08 0,0.16 0,0.24 0,1.64 1.36,3 2.96,3 z" />
    <path
       inkscape:connector-curvature="0"
       id="path4628"
       style="font-style:normal;font-variant:normal;font-weight:bold;font-stretch:normal;font-size:medium;line-height:1.25;font-family:nord;-inkscape-font-specification:nord;letter-spacing:0px;word-spacing:0px;fill:#ffffff;fill-opacity:1;stroke:none;stroke-width:0.29238439"
       d="m 204.31747,1211.4319 c 0.68,0.4 1.52,0.52 2.28,0.28 0.24,-0.08 0.48,-0.2 0.72,-0.28 0.44,-0.28 0.8,-0.64 1.08,-1.08 0.2,-0.44 0.36,-0.84 0.56,-1.28 0.48,-1.12 0.96,-2.2 1.44,-3.32 0.68,-1.52 1.36,-3 2,-4.52 0.72,-1.64 1.44,-3.28 2.16,-4.92 0.68,-1.52 1.32,-3 2,-4.52 0.48,-1.08 0.96,-2.16 1.44,-3.28 0.16,-0.4 0.36,-0.8 0.52,-1.24 0.12,-0.24 0.24,-0.44 0.32,-0.68 0.16,-0.56 0.16,-1.08 0,-1.6 -0.2,-0.76 -0.72,-1.4 -1.36,-1.8 -0.72,-0.4 -1.56,-0.52 -2.32,-0.28 -0.24,0.08 -0.48,0.2 -0.72,0.28 -0.44,0.28 -0.8,0.64 -1.04,1.08 -0.2,0.44 -0.4,0.84 -0.6,1.28 -0.48,1.12 -0.96,2.2 -1.44,3.32 -0.68,1.52 -1.32,3 -2,4.52 -0.08,0.24 -0.2,0.44 -0.28,0.68 -0.16,-0.32 -0.28,-0.64 -0.44,-0.96 -0.72,-1.64 -1.4,-3.24 -2.12,-4.84 -0.48,-1.12 -1,-2.24 -1.48,-3.36 -0.08,-0.2 -0.16,-0.4 -0.24,-0.56 -0.16,-0.2 -0.32,-0.4 -0.48,-0.6 -0.36,-0.36 -0.8,-0.64 -1.32,-0.76 -0.76,-0.24 -1.6,-0.12 -2.28,0.28 -0.68,0.4 -1.16,1.04 -1.36,1.8 -0.04,0.24 -0.08,0.52 -0.12,0.8 0,0.52 0.12,1.04 0.4,1.48 0.28,0.64 0.56,1.24 0.84,1.88 0.6,1.44 1.24,2.88 1.88,4.32 0.72,1.6 1.4,3.2 2.12,4.8 0.44,1.04 0.92,2.08 1.36,3.08 -0.2,0.48 -0.4,0.92 -0.6,1.4 -0.48,1.08 -0.96,2.16 -1.44,3.28 -0.2,0.4 -0.4,0.8 -0.56,1.24 -0.12,0.24 -0.2,0.48 -0.32,0.72 -0.12,0.52 -0.12,1.04 0,1.56 0.24,0.76 0.72,1.4 1.4,1.8 z" />
    <path
       inkscape:connector-curvature="0"
       id="path4630"
       style="font-style:normal;font-variant:normal;font-weight:bold;font-stretch:normal;font-size:medium;line-height:1.25;font-family:nord;-inkscape-font-specification:nord;letter-spacing:0px;word-spacing:0px;fill:#ffffff;fill-opacity:1;stroke:none;stroke-width:0.29238439"
       d="m 246.15446,1198.1919 c 0.68,-0.96 1.36,-1.92 2.04,-2.88 0,0.36 0,0.72 0,1.08 0,1.76 0,3.56 0,5.32 0,1.48 0,2.92 0,4.4 0,0.84 0,1.64 0,2.44 0,0.08 0,0.12 0,0.2 0,1.64 1.36,3 2.96,3 1.64,0 3,-1.36 3,-3 0,-0.52 0,-1 0,-1.52 0,-1.28 0,-2.6 0,-3.88 0,-1.72 0,-3.4 0,-5.12 0,-1.76 0,-3.52 0,-5.32 0,-1.44 0,-2.92 0,-4.4 0,-0.8 0,-1.64 0,-2.44 0,-0.08 0,-0.12 0,-0.2 0,-1.32 -0.92,-2.52 -2.2,-2.88 -0.52,-0.12 -1.04,-0.12 -1.6,0 -0.24,0.12 -0.44,0.2 -0.68,0.32 -0.48,0.24 -0.84,0.6 -1.08,1.04 -0.24,0.36 -0.48,0.72 -0.76,1.08 -0.64,0.92 -1.28,1.8 -1.92,2.72 -0.88,1.28 -1.8,2.6 -2.68,3.88 -1.04,1.44 -2.04,2.92 -3.08,4.36 -0.68,0.96 -1.36,1.92 -2.04,2.88 0,-0.36 0,-0.72 0,-1.08 0,-1.76 0,-3.56 0,-5.32 0,-1.44 0,-2.92 0,-4.4 0,-0.8 0,-1.6 0,-2.4 0,-0.04 0,-0.08 0,-0.16 0,-1.64 -1.36,-3 -2.96,-3 -1.64,0 -3,1.36 -3,3 0,0.52 0,1.04 0,1.52 0,1.32 0,2.6 0,3.88 0,1.72 0,3.44 0,5.16 0,1.76 0,3.52 0,5.28 0,1.48 0,2.92 0,4.4 0,0.8 0,1.6 0,2.4 0,0.04 0,0.12 0,0.16 0,1.32 0.92,2.52 2.2,2.88 0.52,0.16 1.04,0.16 1.56,0 0.24,-0.08 0.48,-0.2 0.72,-0.28 0.48,-0.28 0.8,-0.64 1.08,-1.08 0.24,-0.36 0.48,-0.68 0.72,-1.04 0.68,-0.92 1.32,-1.84 1.96,-2.76 0.88,-1.28 1.8,-2.56 2.68,-3.84 1.04,-1.48 2.04,-2.92 3.08,-4.4 z" />
    <path
       d="m 180.32247,1256.5139 c 1.64,0 3,-1.36 3,-3 0,-0.48 0,-1 0,-1.52 0,-1.28 0,-2.56 0,-3.84 0,-1 0,-2 0,-3 0,0 0,0 0,0 1.76,0 3.48,0 5.24,0 0.76,0 1.52,0 2.28,0 0,0.36 0,0.72 0,1.12 0,1.48 0,2.96 0,4.44 0,0.88 0,1.72 0,2.56 0,0.08 0,0.16 0,0.24 0,1.64 1.36,3 2.96,3 1.64,0 3,-1.36 3,-3 0,-0.48 0,-1 0,-1.52 0,-1.28 0,-2.56 0,-3.84 0,-1.68 0,-3.4 0,-5.12 0,-1.76 0,-3.52 0,-5.32 0,-1.48 0,-2.96 0,-4.44 0,-0.88 0,-1.72 0,-2.56 0,-0.08 0,-0.16 0,-0.24 0,-1.64 -1.36,-3 -3,-3 -1.6,0 -2.96,1.36 -2.96,3 0,0.48 0,1 0,1.52 0,1.28 0,2.56 0,3.84 0,1.12 0,2.24 0,3.36 -0.4,0 -0.8,0 -1.2,0 -1.76,0 -3.48,0 -5.24,0 -0.36,0 -0.72,0 -1.08,0 0,-0.52 0,-1 0,-1.48 0,-1.48 0,-2.96 0,-4.44 0,-0.88 0,-1.72 0,-2.56 0,-0.08 0,-0.16 0,-0.24 0,-1.64 -1.36,-3 -3,-3 -1.6,0 -2.96,1.36 -2.96,3 0,0.48 0,1 0,1.52 0,1.28 0,2.56 0,3.84 0,1.68 0,3.4 0,5.12 0,1.76 0,3.52 0,5.32 0,1.48 0,2.96 0,4.44 0,0.88 0,1.72 0,2.56 0,0.08 0,0.16 0,0.24 0,1.64 1.36,3 2.96,3 z"
       style="font-style:normal;font-variant:normal;font-weight:bold;font-stretch:normal;font-size:medium;line-height:1.25;font-family:nord;-inkscape-font-specification:nord;letter-spacing:0px;word-spacing:0px;fill:#ffffff;fill-opacity:1;stroke:none;stroke-width:0.29238439"
       id="path4582"
       inkscape:connector-curvature="0" />
    <path
       d="m 204.83747,1233.1139 c 0,0 0,0 0.04,0 1.76,0 3.52,0 5.32,0 0.96,0 1.92,0 2.88,0 0,0 0,0 0,0 1.52,0 2.8,-1.24 2.8,-2.8 0,-1.52 -1.28,-2.76 -2.8,-2.76 -0.96,0 -1.88,0 -2.84,0 -1.76,0 -3.56,0 -5.32,0 -0.96,0 -1.92,0 -2.88,0 0,0 0,0 0,0 -1.52,0 -2.8,1.24 -2.8,2.76 0,0.52 0,1.04 0,1.56 0,1.32 0,2.64 0,3.96 0,1.72 0,3.48 0,5.24 0,1.8 0,3.6 0,5.4 0,1.48 0,3 0,4.52 0,0.8 0,1.64 0,2.48 0,0.08 0,0.16 0,0.2 0,1.52 1.28,2.8 2.8,2.8 0.96,0 1.92,0 2.88,0 1.76,0 3.52,0 5.28,0 0.92,0 1.8,0 2.72,0 1.52,0 2.8,-1.28 2.8,-2.8 0,-1.52 -1.28,-2.8 -2.8,-2.8 -0.96,0 -1.92,0 -2.88,0 -1.76,0 -3.48,0 -5.2,0 0,-0.88 0,-1.8 0,-2.68 0,-0.96 0,-1.92 0,-2.88 0.2,0 0.44,0 0.64,0 1.76,0 3.48,0 5.24,0 0.56,0 1.16,0 1.76,0 1.52,0 2.8,-1.24 2.8,-2.76 0,-1.56 -1.28,-2.8 -2.8,-2.8 -1,0 -2.04,0 -3.04,0 -1.56,0 -3.08,0 -4.6,0 0,-0.76 0,-1.48 0,-2.2 0,-1.48 0,-2.96 0,-4.44 z"
       style="font-style:normal;font-variant:normal;font-weight:bold;font-stretch:normal;font-size:medium;line-height:1.25;font-family:nord;-inkscape-font-specification:nord;letter-spacing:0px;word-spacing:0px;fill:#ffffff;fill-opacity:1;stroke:none;stroke-width:0.29238439"
       id="path4584"
       inkscape:connector-curvature="0" />
    <path
       d="m 235.33795,1256.5139 c 1.64,0 3,-1.36 3,-3 0,-0.48 0,-1 0,-1.52 0,-1.28 0,-2.56 0,-3.84 0,-1 0,-2 0,-3 0,0 0,0 0,0 1.76,0 3.48,0 5.24,0 0.76,0 1.52,0 2.28,0 0,0.36 0,0.72 0,1.12 0,1.48 0,2.96 0,4.44 0,0.88 0,1.72 0,2.56 0,0.08 0,0.16 0,0.24 0,1.64 1.36,3 2.96,3 1.64,0 3,-1.36 3,-3 0,-0.48 0,-1 0,-1.52 0,-1.28 0,-2.56 0,-3.84 0,-1.68 0,-3.4 0,-5.12 0,-1.76 0,-3.52 0,-5.32 0,-1.48 0,-2.96 0,-4.44 0,-0.88 0,-1.72 0,-2.56 0,-0.08 0,-0.16 0,-0.24 0,-1.64 -1.36,-3 -3,-3 -1.6,0 -2.96,1.36 -2.96,3 0,0.48 0,1 0,1.52 0,1.28 0,2.56 0,3.84 0,1.12 0,2.24 0,3.36 -0.4,0 -0.8,0 -1.2,0 -1.76,0 -3.48,0 -5.24,0 -0.36,0 -0.72,0 -1.08,0 0,-0.52 0,-1 0,-1.48 0,-1.48 0,-2.96 0,-4.44 0,-0.88 0,-1.72 0,-2.56 0,-0.08 0,-0.16 0,-0.24 0,-1.64 -1.36,-3 -3,-3 -1.6,0 -2.96,1.36 -2.96,3 0,0.48 0,1 0,1.52 0,1.28 0,2.56 0,3.84 0,1.68 0,3.4 0,5.12 0,1.76 0,3.52 0,5.32 0,1.48 0,2.96 0,4.44 0,0.88 0,1.72 0,2.56 0,0.08 0,0.16 0,0.24 0,1.64 1.36,3 2.96,3 z"
       style="font-style:normal;font-variant:normal;font-weight:bold;font-stretch:normal;font-size:medium;line-height:1.25;font-family:nord;-inkscape-font-specification:nord;letter-spacing:0px;word-spacing:0px;fill:#ffffff;fill-opacity:1;stroke:none;stroke-width:0.29238439"
       id="path4586"
       inkscape:connector-curvature="0" />
    <path
       d="m 259.33295,1256.1139 c 0.68,0.4 1.52,0.52 2.28,0.28 0.24,-0.08 0.48,-0.2 0.72,-0.28 0.44,-0.28 0.8,-0.64 1.08,-1.08 0.2,-0.44 0.36,-0.84 0.56,-1.28 0.48,-1.12 0.96,-2.2 1.44,-3.32 0.68,-1.52 1.36,-3 2,-4.52 0.72,-1.64 1.44,-3.28 2.16,-4.92 0.68,-1.52 1.32,-3 2,-4.52 0.48,-1.08 0.96,-2.16 1.44,-3.28 0.16,-0.4 0.36,-0.8 0.52,-1.24 0.12,-0.24 0.24,-0.44 0.32,-0.68 0.16,-0.56 0.16,-1.08 0,-1.6 -0.2,-0.76 -0.72,-1.4 -1.36,-1.8 -0.72,-0.4 -1.56,-0.52 -2.32,-0.28 -0.24,0.08 -0.48,0.2 -0.72,0.28 -0.44,0.28 -0.8,0.64 -1.04,1.08 -0.2,0.44 -0.4,0.84 -0.6,1.28 -0.48,1.12 -0.96,2.2 -1.44,3.32 -0.68,1.52 -1.32,3 -2,4.52 -0.08,0.24 -0.2,0.44 -0.28,0.68 -0.16,-0.32 -0.28,-0.64 -0.44,-0.96 -0.72,-1.64 -1.4,-3.24 -2.12,-4.84 -0.48,-1.12 -1,-2.24 -1.48,-3.36 -0.08,-0.2 -0.16,-0.4 -0.24,-0.56 -0.16,-0.2 -0.32,-0.4 -0.48,-0.6 -0.36,-0.36 -0.8,-0.64 -1.32,-0.76 -0.76,-0.24 -1.6,-0.12 -2.28,0.28 -0.68,0.4 -1.16,1.04 -1.36,1.8 -0.04,0.24 -0.08,0.52 -0.12,0.8 0,0.52 0.12,1.04 0.4,1.48 0.28,0.64 0.56,1.24 0.84,1.88 0.6,1.44 1.24,2.88 1.88,4.32 0.72,1.6 1.4,3.2 2.12,4.8 0.44,1.04 0.92,2.08 1.36,3.08 -0.2,0.48 -0.4,0.92 -0.6,1.4 -0.48,1.08 -0.96,2.16 -1.44,3.28 -0.2,0.4 -0.4,0.8 -0.56,1.24 -0.12,0.24 -0.2,0.48 -0.32,0.72 -0.12,0.52 -0.12,1.04 0,1.56 0.24,0.76 0.72,1.4 1.4,1.8 z"
       style="font-style:normal;font-variant:normal;font-weight:bold;font-stretch:normal;font-size:medium;line-height:1.25;font-family:nord;-inkscape-font-specification:nord;letter-spacing:0px;word-spacing:0px;fill:#ffffff;fill-opacity:1;stroke:none;stroke-width:0.29238439"
       id="path4588"
       inkscape:connector-curvature="0" />
    <path
       d="m 279.44233,1247.1939 c -0.72,1.32 -1.48,2.64 -2.2,3.92 -0.16,0.28 -0.32,0.6 -0.48,0.88 -0.36,0.68 -0.52,1.52 -0.28,2.28 0.2,0.76 0.68,1.4 1.36,1.8 1.4,0.8 3.28,0.36 4.08,-1.08 0.4,-0.72 0.8,-1.44 1.2,-2.12 0.84,-1.52 1.64,-3 2.48,-4.48 0.6,-1.08 1.2,-2.12 1.76,-3.2 0.64,0 1.28,0 1.92,0 0,0.4 0,0.8 0,1.24 0,1.44 0,2.92 0,4.4 0,0.84 0,1.64 0,2.48 0,0.04 0,0.12 0,0.16 0,1.64 1.36,3 3,3 1.64,0 3,-1.36 3,-3 0,-0.48 0,-1 0,-1.52 0,-1.28 0,-2.56 0,-3.84 0,-1 0,-1.96 0,-2.92 0.48,0 0.96,0 1.44,0 0.12,0 0.24,0 0.32,0 0.36,0.64 0.72,1.28 1.08,1.92 0.84,1.52 1.72,3.08 2.56,4.6 0.56,1.04 1.16,2.08 1.72,3.08 0.04,0.08 0.08,0.12 0.12,0.2 0.76,1.44 2.68,1.88 4.08,1.08 0.64,-0.4 1.16,-1.04 1.36,-1.8 0.24,-0.76 0.08,-1.6 -0.28,-2.28 -0.4,-0.72 -0.8,-1.44 -1.2,-2.16 -0.84,-1.48 -1.68,-2.96 -2.48,-4.48 -0.6,-1.08 -1.24,-2.16 -1.84,-3.24 0.12,-0.24 0.24,-0.44 0.36,-0.64 0.8,-1.48 1.6,-2.96 2.44,-4.48 0.72,-1.32 1.44,-2.64 2.16,-3.96 0.2,-0.32 0.36,-0.64 0.56,-0.96 0.36,-0.72 0.52,-1.52 0.28,-2.32 -0.2,-0.76 -0.72,-1.4 -1.36,-1.8 -1.4,-0.8 -3.32,-0.32 -4.08,1.08 -0.4,0.72 -0.8,1.44 -1.16,2.12 -0.84,1.52 -1.64,3 -2.48,4.48 -0.64,1.2 -1.28,2.4 -1.96,3.6 -0.52,0 -1.08,0 -1.64,0 0,-0.52 0,-1.04 0,-1.56 0,-1.48 0,-2.96 0,-4.44 0,-0.8 0,-1.64 0,-2.44 0,-0.08 0,-0.12 0,-0.2 0,-1.64 -1.36,-3 -3,-3 -1.64,0 -3,1.36 -3,3 0,0.52 0,1 0,1.52 0,1.28 0,2.6 0,3.88 0,1.08 0,2.16 0,3.24 -0.52,0 -1.04,0 -1.56,0 -0.08,0 -0.16,0 -0.24,0 -0.4,-0.76 -0.8,-1.52 -1.24,-2.28 -0.84,-1.56 -1.68,-3.08 -2.52,-4.64 -0.56,-1.04 -1.12,-2.04 -1.68,-3.08 -0.04,-0.04 -0.08,-0.12 -0.12,-0.2 -0.76,-1.4 -2.72,-1.88 -4.08,-1.08 -0.68,0.4 -1.16,1.04 -1.36,1.8 -0.24,0.8 -0.08,1.6 0.28,2.32 0.4,0.68 0.8,1.4 1.16,2.12 0.84,1.48 1.64,2.96 2.48,4.48 0.6,1.12 1.24,2.28 1.88,3.44 -0.12,0.2 -0.24,0.4 -0.36,0.64 -0.84,1.48 -1.68,2.96 -2.48,4.44 z"
       style="font-style:normal;font-variant:normal;font-weight:bold;font-stretch:normal;font-size:medium;line-height:1.25;font-family:nord;-inkscape-font-specification:nord;letter-spacing:0px;word-spacing:0px;fill:#ffffff;fill-opacity:1;stroke:none;stroke-width:0.29238439"
       id="path4590"
       inkscape:connector-curvature="0" />
    <path
       d="m 313.46295,1256.5139 c 1.64,0 3,-1.36 3,-3 0,-0.48 0,-1 0,-1.52 0,-1.28 0,-2.56 0,-3.84 0,-1 0,-2 0,-3 0,0 0,0 0,0 1.76,0 3.48,0 5.24,0 0.76,0 1.52,0 2.28,0 0,0.36 0,0.72 0,1.12 0,1.48 0,2.96 0,4.44 0,0.88 0,1.72 0,2.56 0,0.08 0,0.16 0,0.24 0,1.64 1.36,3 2.96,3 1.64,0 3,-1.36 3,-3 0,-0.48 0,-1 0,-1.52 0,-1.28 0,-2.56 0,-3.84 0,-1.68 0,-3.4 0,-5.12 0,-1.76 0,-3.52 0,-5.32 0,-1.48 0,-2.96 0,-4.44 0,-0.88 0,-1.72 0,-2.56 0,-0.08 0,-0.16 0,-0.24 0,-1.64 -1.36,-3 -3,-3 -1.6,0 -2.96,1.36 -2.96,3 0,0.48 0,1 0,1.52 0,1.28 0,2.56 0,3.84 0,1.12 0,2.24 0,3.36 -0.4,0 -0.8,0 -1.2,0 -1.76,0 -3.48,0 -5.24,0 -0.36,0 -0.72,0 -1.08,0 0,-0.52 0,-1 0,-1.48 0,-1.48 0,-2.96 0,-4.44 0,-0.88 0,-1.72 0,-2.56 0,-0.08 0,-0.16 0,-0.24 0,-1.64 -1.36,-3 -3,-3 -1.6,0 -2.96,1.36 -2.96,3 0,0.48 0,1 0,1.52 0,1.28 0,2.56 0,3.84 0,1.68 0,3.4 0,5.12 0,1.76 0,3.52 0,5.32 0,1.48 0,2.96 0,4.44 0,0.88 0,1.72 0,2.56 0,0.08 0,0.16 0,0.24 0,1.64 1.36,3 2.96,3 z"
       style="font-style:normal;font-variant:normal;font-weight:bold;font-stretch:normal;font-size:medium;line-height:1.25;font-family:nord;-inkscape-font-specification:nord;letter-spacing:0px;word-spacing:0px;fill:#ffffff;fill-opacity:1;stroke:none;stroke-width:0.29238439"
       id="path4592"
       inkscape:connector-curvature="0" />
    <path
       d="m 346.85795,1255.6339 c 0.44,-0.36 0.88,-0.68 1.24,-1.04 0.4,-0.4 0.72,-0.84 1.04,-1.28 0.52,-0.68 0.84,-1.44 1.12,-2.24 0.16,-0.36 0.24,-0.72 0.32,-1.08 0.08,-0.6 0.2,-1.24 0.2,-1.88 0,-0.84 0,-1.68 0,-2.56 0,-1.72 0,-3.44 0,-5.2 0,-1.36 0,-2.76 0,-4.16 0,-0.32 0,-0.68 -0.04,-1.04 -0.08,-0.84 -0.2,-1.72 -0.52,-2.56 -0.2,-0.48 -0.4,-1 -0.68,-1.48 -0.28,-0.48 -0.6,-0.88 -0.96,-1.32 -0.52,-0.68 -1.16,-1.2 -1.84,-1.68 -0.68,-0.52 -1.48,-0.84 -2.28,-1.12 -0.28,-0.12 -0.6,-0.2 -0.88,-0.24 -0.56,-0.12 -1.12,-0.2 -1.68,-0.24 -0.32,0 -0.64,0 -0.96,0.04 -0.56,0.04 -1.12,0.12 -1.68,0.24 -0.32,0.08 -0.6,0.2 -0.88,0.32 -0.52,0.2 -1,0.4 -1.48,0.68 -0.48,0.28 -0.88,0.64 -1.32,0.96 -0.24,0.2 -0.44,0.4 -0.64,0.6 -0.36,0.4 -0.72,0.84 -1,1.28 -0.2,0.24 -0.36,0.48 -0.48,0.76 -0.4,0.76 -0.72,1.56 -0.88,2.4 -0.12,0.76 -0.2,1.48 -0.2,2.24 0,0.52 0,1.04 0,1.56 0,1.68 0,3.4 0,5.08 0,1.52 0,3 0,4.52 0,0.32 0,0.6 0,0.92 0,0.72 0.12,1.44 0.24,2.12 0.08,0.28 0.16,0.6 0.28,0.88 0.16,0.52 0.4,1 0.64,1.48 0.16,0.28 0.32,0.52 0.48,0.76 0.32,0.44 0.68,0.88 1.04,1.24 0.4,0.4 0.84,0.72 1.24,1.04 0.24,0.2 0.52,0.36 0.76,0.48 0.48,0.28 1,0.48 1.52,0.68 0.28,0.12 0.56,0.2 0.84,0.28 0.56,0.12 1.12,0.2 1.68,0.24 0.32,0 0.64,0 0.96,0 0.88,-0.08 1.76,-0.2 2.56,-0.52 0.8,-0.32 1.56,-0.64 2.24,-1.16 z m -5.72,-4.32 c -0.28,-0.08 -0.56,-0.16 -0.8,-0.24 -0.24,-0.12 -0.48,-0.28 -0.72,-0.4 -0.2,-0.2 -0.4,-0.4 -0.56,-0.6 -0.16,-0.24 -0.32,-0.48 -0.44,-0.72 -0.08,-0.24 -0.16,-0.52 -0.2,-0.8 -0.04,-0.28 -0.04,-0.6 -0.04,-0.88 0,-0.56 0,-1.08 0,-1.64 0,-1.72 0,-3.4 0,-5.12 0,-1.48 0,-2.96 0,-4.44 0,-0.4 0,-0.8 0.04,-1.2 0.04,-0.28 0.12,-0.56 0.2,-0.8 0.12,-0.24 0.28,-0.48 0.44,-0.72 0.16,-0.2 0.36,-0.4 0.56,-0.56 0.24,-0.16 0.48,-0.32 0.72,-0.44 0.24,-0.08 0.52,-0.16 0.8,-0.2 0.28,-0.04 0.56,-0.04 0.88,0 0.28,0.04 0.52,0.12 0.8,0.2 0.24,0.12 0.48,0.28 0.72,0.44 0.2,0.16 0.4,0.36 0.56,0.56 0.16,0.24 0.32,0.48 0.44,0.72 0.08,0.24 0.16,0.52 0.2,0.8 0,0.28 0.04,0.56 0.04,0.84 0,0.56 0,1.08 0,1.64 0,1.68 0,3.4 0,5.08 0,1.52 0,3 0,4.48 0,0.24 0,0.52 0,0.8 0,0.16 -0.04,0.28 -0.04,0.44 -0.04,0.28 -0.12,0.56 -0.2,0.8 -0.12,0.24 -0.28,0.48 -0.44,0.72 -0.16,0.2 -0.36,0.4 -0.56,0.6 -0.24,0.12 -0.48,0.28 -0.72,0.4 -0.28,0.08 -0.52,0.16 -0.8,0.24 -0.32,0 -0.6,0 -0.88,0 z"
       style="font-style:normal;font-variant:normal;font-weight:bold;font-stretch:normal;font-size:medium;line-height:1.25;font-family:nord;-inkscape-font-specification:nord;letter-spacing:0px;word-spacing:0px;fill:#ffffff;fill-opacity:1;stroke:none;stroke-width:0.29238439"
       id="path4594"
       inkscape:connector-curvature="0" />
    <path
       inkscape:connector-curvature="0"
       id="path4636"
       style="font-style:normal;font-variant:normal;font-weight:bold;font-stretch:normal;font-size:medium;line-height:1.25;font-family:nord;-inkscape-font-specification:nord;letter-spacing:0px;word-spacing:0px;fill:#ffffff;fill-opacity:1;stroke:none;stroke-width:0.29238436"
       d="m 362.69363,1222.2986 c -1.11946,0 -2.14562,0.4198 -2.93857,1.2128 -0.74631,0.7463 -1.21274,1.8191 -1.21274,2.9385 0,0.6531 0,1.3061 0,1.9591 0,0.1866 0,0.3731 0.0466,0.5597 0,0.047 0,0.093 0,0.1866 0.0466,0.9795 0.0933,1.959 0.18658,2.9386 0.0933,2.0057 0.23321,4.058 0.3265,6.0637 0.0933,1.6792 0.18658,3.3583 0.32651,4.9909 0,0.2798 0,0.5597 0.0466,0.8396 0,0.2798 0.0466,0.5597 0.0933,0.8396 0.13993,0.5597 0.4198,1.0261 0.83959,1.4459 0.60637,0.6064 1.44597,0.9329 2.28556,0.9329 0.83959,0 1.67918,-0.3265 2.28555,-0.9329 0.18658,-0.2332 0.32651,-0.4664 0.51308,-0.653 0.27987,-0.5131 0.4198,-1.0728 0.4198,-1.6325 0.0933,-1.0262 0.13993,-2.0057 0.18658,-2.9852 0.13993,-2.0057 0.23322,-4.0581 0.37315,-6.0638 0.0933,-1.6791 0.18657,-3.3583 0.27986,-4.9909 0,-0.1399 0,-0.2798 0.0466,-0.4198 0,-0.1399 0,-0.2798 0,-0.3731 0,-0.093 0,-0.1399 0,-0.1866 0.0466,-0.1866 0.0466,-0.3731 0.0466,-0.5597 0,-0.653 0,-1.306 0,-1.9591 0,-1.1194 -0.46644,-2.1922 -1.21274,-2.9385 -0.79295,-0.793 -1.86576,-1.2128 -2.93857,-1.2128 z m 0.13993,27.7065 c -1.9124,0 -3.54494,1.5859 -3.54494,3.545 0,1.9124 1.63254,3.4983 3.54494,3.4983 1.9124,0 3.4983,-1.5859 3.4983,-3.4983 0,-1.9591 -1.5859,-3.545 -3.4983,-3.545 z" />
  </g>
</svg>
